<?xml version="1.0"?>
<!DOCTYPE svg PUBLIC "-//W3C//DTD SVG 1.1//EN" "http://www.w3.org/Graphics/SVG/1.1/DTD/svg11.dtd">
<svg version="1.1" width="1200" height="132" onload="init(evt)" viewBox="0 0 1200 132" xmlns="http://www.w3.org/2000/svg" >
    <defs >
        <linearGradient id="background" y1="0" y2="1" x1="0" x2="0" >
            <stop stop-color="#eeeeee" offset="5%" />
            <stop stop-color="#eeeeb0" offset="95%" />
        </linearGradient>
    </defs>
    <style type="text/css" >
	rect[rx]:hover { stroke:black; stroke-width:1; }
	text:hover { stroke:black; stroke-width:1; stroke-opacity:0.35; }
    </style>
    <script type="text/ecmascript" >
	var details;
	function init(evt) {
		details = document.getElementById(&quot;details&quot;).
		    firstChild;
	}
	function s(info) { details.nodeValue = info; }
	function c() { details.nodeValue = &quot; &quot;; }
    </script>
    <rect x="0.0" y="0.0" width="1200.0" height="132.0" fill="url(#background)" />
    <text text-anchor="middle" x="600" y="24" font-size="17" font-family="Verdana" fill="rgb(0, 0, 0)" >Flame Graph</text>
    <text text-anchor="left" x="10" y="48" font-size="12" font-family="Verdana" fill="rgb(0, 0, 0)" >Function:</text>
    <text text-anchor="left" x="70" y="48" font-size="12" font-family="Verdana" fill="rgb(0, 0, 0)" id="details" > </text>
    <rect x="10.0" y="67.0" width="84.3" height="15.0" fill="rgb(255,255,166)" rx="2" ry="2" onmouseover="s(&quot;node`0x30 (1 samples, 7.14%)&quot;)" onmouseout="c()" />
    <text text-anchor="left" x="13" y="77.5" font-size="12" font-family="Verdana" fill="rgb(0, 0, 0)" onmouseover="s(&quot;node`0x30 (1 samples, 7.14%)&quot;)" onmouseout="c()" >node`0x30</text>
    <rect x="94.3" y="67.0" width="84.3" height="15.0" fill="rgb(255,255,166)" rx="2" ry="2" onmouseover="s(&quot;node`0x300ac60 (1 samples, 7.14%)&quot;)" onmouseout="c()" />
    <text text-anchor="left" x="97.28571428571429" y="77.5" font-size="12" font-family="Verdana" fill="rgb(0, 0, 0)" onmouseover="s(&quot;node`0x300ac60 (1 samples, 7.14%)&quot;)" onmouseout="c()" >node`0x300..</text>
    <rect x="178.6" y="67.0" width="84.3" height="15.0" fill="rgb(255,255,166)" rx="2" ry="2" onmouseover="s(&quot;node`0x3800020 (1 samples, 7.14%)&quot;)" onmouseout="c()" />
    <text text-anchor="left" x="181.57142857142858" y="77.5" font-size="12" font-family="Verdana" fill="rgb(0, 0, 0)" onmouseover="s(&quot;node`0x3800020 (1 samples, 7.14%)&quot;)" onmouseout="c()" >node`0x380..</text>
    <rect x="262.9" y="67.0" width="84.3" height="15.0" fill="rgb(255,255,166)" rx="2" ry="2" onmouseover="s(&quot;node`0x3818ce8 (1 samples, 7.14%)&quot;)" onmouseout="c()" />
    <text text-anchor="left" x="265.8571428571429" y="77.5" font-size="12" font-family="Verdana" fill="rgb(0, 0, 0)" onmouseover="s(&quot;node`0x3818ce8 (1 samples, 7.14%)&quot;)" onmouseout="c()" >node`0x381..</text>
    <rect x="347.1" y="67.0" width="84.3" height="15.0" fill="rgb(255,255,166)" rx="2" ry="2" onmouseover="s(&quot;node`0x38973e0 (1 samples, 7.14%)&quot;)" onmouseout="c()" />
    <text text-anchor="left" x="350.14285714285717" y="77.5" font-size="12" font-family="Verdana" fill="rgb(0, 0, 0)" onmouseover="s(&quot;node`0x38973e0 (1 samples, 7.14%)&quot;)" onmouseout="c()" >node`0x389..</text>
    <rect x="431.4" y="67.0" width="84.3" height="15.0" fill="rgb(255,255,166)" rx="2" ry="2" onmouseover="s(&quot;node`0x4 (1 samples, 7.14%)&quot;)" onmouseout="c()" />
    <text text-anchor="left" x="434.42857142857144" y="77.5" font-size="12" font-family="Verdana" fill="rgb(0, 0, 0)" onmouseover="s(&quot;node`0x4 (1 samples, 7.14%)&quot;)" onmouseout="c()" >node`0x4</text>
    <rect x="515.7" y="67.0" width="84.3" height="15.0" fill="rgb(255,255,166)" rx="2" ry="2" onmouseover="s(&quot;node`0x54990449 (1 samples, 7.14%)&quot;)" onmouseout="c()" />
    <text text-anchor="left" x="518.7142857142858" y="77.5" font-size="12" font-family="Verdana" fill="rgb(0, 0, 0)" onmouseover="s(&quot;node`0x54990449 (1 samples, 7.14%)&quot;)" onmouseout="c()" >node`0x549..</text>
    <rect x="600.0" y="67.0" width="84.3" height="15.0" fill="rgb(255,255,166)" rx="2" ry="2" onmouseover="s(&quot;node`0x5e (1 samples, 7.14%)&quot;)" onmouseout="c()" />
    <text text-anchor="left" x="603" y="77.5" font-size="12" font-family="Verdana" fill="rgb(0, 0, 0)" onmouseover="s(&quot;node`0x5e (1 samples, 7.14%)&quot;)" onmouseout="c()" >node`0x5e</text>
    <rect x="684.3" y="67.0" width="168.6" height="15.0" fill="rgb(255,255,153)" rx="2" ry="2" onmouseover="s(&quot;node`0x7 (2 samples, 14.29%)&quot;)" onmouseout="c()" />
    <text text-anchor="left" x="687.2857142857143" y="77.5" font-size="12" font-family="Verdana" fill="rgb(0, 0, 0)" onmouseover="s(&quot;node`0x7 (2 samples, 14.29%)&quot;)" onmouseout="c()" >node`0x7</text>
    <rect x="852.9" y="67.0" width="84.3" height="15.0" fill="rgb(255,255,166)" rx="2" ry="2" onmouseover="s(&quot;node`0xd607d3b9 (1 samples, 7.14%)&quot;)" onmouseout="c()" />
    <text text-anchor="left" x="855.8571428571429" y="77.5" font-size="12" font-family="Verdana" fill="rgb(0, 0, 0)" onmouseover="s(&quot;node`0xd607d3b9 (1 samples, 7.14%)&quot;)" onmouseout="c()" >node`0xd60..</text>
    <rect x="937.1" y="67.0" width="84.3" height="15.0" fill="rgb(255,255,166)" rx="2" ry="2" onmouseover="s(&quot;node`0xefbf4d50 (1 samples, 7.14%)&quot;)" onmouseout="c()" />
    <text text-anchor="left" x="940.1428571428572" y="77.5" font-size="12" font-family="Verdana" fill="rgb(0, 0, 0)" onmouseover="s(&quot;node`0xefbf4d50 (1 samples, 7.14%)&quot;)" onmouseout="c()" >node`0xefb..</text>
    <rect x="1021.4" y="67.0" width="84.3" height="15.0" fill="rgb(255,255,166)" rx="2" ry="2" onmouseover="s(&quot;node`0xefbf6097 (1 samples, 7.14%)&quot;)" onmouseout="c()" />
    <text text-anchor="left" x="1024.4285714285716" y="77.5" font-size="12" font-family="Verdana" fill="rgb(0, 0, 0)" onmouseover="s(&quot;node`0xefbf6097 (1 samples, 7.14%)&quot;)" onmouseout="c()" >node`0xefb..</text>
    <rect x="1105.7" y="67.0" width="84.3" height="15.0" fill="rgb(255,255,166)" rx="2" ry="2" onmouseover="s(&quot;node`0xefbf6540 (1 samples, 7.14%)&quot;)" onmouseout="c()" />
    <text text-anchor="left" x="1108.7142857142858" y="77.5" font-size="12" font-family="Verdana" fill="rgb(0, 0, 0)" onmouseover="s(&quot;node`0xefbf6540 (1 samples, 7.14%)&quot;)" onmouseout="c()" >node`0xefb..</text>
    <rect x="10.0" y="83.0" width="1180.0" height="15.0" fill="rgb(204,0,0)" rx="2" ry="2" onmouseover="s(&quot;all samples (14 samples, 100%)&quot;)" onmouseout="c()" />
    <text text-anchor="left" x="13" y="93.5" font-size="12" font-family="Verdana" fill="rgb(0, 0, 0)" onmouseover="s(&quot;all samples (14 samples, 100%)&quot;)" onmouseout="c()" ></text>
</svg>
