{
  "name": "asset_type",
  "base": "PersistedModel",
  "idInjection": true,
  "options": {
    "validateUpsert": true
  },
  "properties": {
    "asset_name": {
      "type": "string"
    }
  },
  "validations": [],
  "relations": {
    "asset": {
      "type": "hasMany",
      "model": "asset",
      "foreign_key": "asset_type_id"
    },
    "job_questions": {
      "type": "hasOne",
      "model": "job_questions",
      "foreign_key": "asset_type_id"
    }
  },
  "acls": [],
  "methods": {}
}
