{
  "name": "daily_screening",
  "base": "PersistedModel",
  "idInjection": true,
  "options": {
    "validateUpsert": true
  },
  "properties": {
    "date": {
      "type": "date"
    },
    "pass": {
      "type": "number"
    },
    "fail": {
      "type": "number"
    },
    "medium_priority": {
      "type": "number"
    },
    "low_priority": {
      "type": "number"
    },
    "total_screening": {
      "type": "number"
    }
  },
  "validations": [],
  "relations": {
    "report": {
      "type": "belongsTo",
      "model": "report",
      "foreignKey": "report_id"
    }
  },
  "acls": [],
  "methods": {}
}
