{
  "name": "daily_report",
  "base": "PersistedModel",
  "idInjection": true,
  "options": {
    "validateUpsert": true
  },
  "properties": {
    "date": {
      "type": "date"
    },
    "medicalchecklist_pass": {
      "type": "number"
    },
    "medicalchecklist_fail": {
      "type": "number"
    },
    "vehiclechecklist_pass": {
      "type": "number"
    },
    "vehiclechecklist_fail": {
      "type": "number"
    },
    "medicalchecklist_total": {
      "type": "number"
    },
    "vehiclechecklist_total": {
      "type": "number"
    },
    "journey_start": {
      "type": "number"
    },
    "journey_incomplete": {
      "type": "number"
    },
    "journey_complete": {
      "type": "number"
    }
  },
  "validations": [],
  "relations": {
    "report": {
      "type": "belongsTo",
      "model": "report",
      "foreignKey": "report_id"
    }
  },
  "acls": [],
  "methods": {}
}
