{
  "name": "location",
  "base": "PersistedModel",
  "idInjection": true,
  "options": {
    "validateUpsert": true
  },
  "properties": {
    "location_name": {
      "type": "string"
    },
    "lat": {
      "type": "string"
    },
    "lng": {
      "type": "string"
    }
  },
  "validations": [],
  "relations": {},
  "acls": [],
  "methods": {}
}
