{
  "name": "question_group_header",
  "base": "PersistedModel",
  "idInjection": true,
  "options": {
    "validateUpsert": true
  },
  "properties": {
    "id": {
      "type": "number",
      "required": true
    },
    "priority": {
      "type": "string"
    },
    "header": {
      "type": "string"
    },
    "status": {
      "type": "string"
    }
  },
  "validations": [],
  "relations": {
    "job_questions": {
      "type": "hasMany",
      "model": "job_questions",
      "foreignKey": "question_group_header_id"
    }
  },
  "acls": [],
  "methods": {}
}
