{
  "name": "risks",
  "base": "PersistedModel",
  "idInjection": true,
  "options": {
    "validateUpsert": true
  },
  "properties": {
    "rm_name": {
      "type": "string",
      "required": true
    },
    "rm_id": {
      "type": "number",
      "id": true,
      "required": true
    },
    "sortId": {
      "type": "number"
    }
  },
  "validations": [],
  "relations": {
    "risk_average": {
      "type": "hasMany",
      "model": "risk_average",
      "foreignKey": "rm_id"
    },
    "critical_control": {
      "type": "hasMany",
      "model": "critical_control",
      "foreignKey": "rm_id"
    }
  },
  "acls": [
    {
      "accessType": "EXECUTE",
      "principalType": "ROLE",
      "principalId": "$authenticated",
      "permission": "ALLOW"
    }
  ],
  "methods": {}
}
