"id";"priority";"header";"questgroup_id";"status"
1;"H";"CATEGORY “A” FAULTS – VEHICLE MUST NOT BE OPERATED – NOTIFY SUPERVISOR IMMEDIATELY ";1;""
2;"M";"CATEGORY “B” FAULTS – VEHICLE MUST NOT BE OPERATED UNLESS FAULT IS CORRECTED OR APPROVED BY SUPERVISOR ";1;"Notify supervisor of defects before trip"
3;"L";"CATEGORY “C” FAULTS – VEHICLE CAN BE OPERATED – CORRECTIVE ACTION REQUIRED ";1;"Check defects after trip"
4;"H";"Header A";2;""
5;"M";"Header B";2;""
6;"L";"Header C";2;""
7;"H";"Medical Screening Approval";3;""
8;"M";"Header E";3;""
9;"L";"Medical Screening Details";3;"one or more questions failed"
10;"";"";4;""
11;"";"";4;""
12;"";"";4;""
13;"H";"Dispatch Start Journey";5;""
14;"M";"";5;""
15;"L";"";5;""
16;"";"";6;""
17;"H";"Close Journey";7;""
18;"H";"Dispatch Close Journey";8;""
19;"L";"Check-in";8;""
