"id";"nurseQuestionnaireId";"driverQuestionnaireId";"dispatcherQuestionnaireId";"timestamp";"status";"assetId";"driverId";"routes_id"
1;"";"0.46445738425944727";"0.7362310620319357";"2018-12-08 15:22:03";"Open";4156;980340;1
2;"";"";"0.1570017521845979";"2018-12-08 12:42:51";"Timed out";0;980802;0
3;"";"";"0.8432191792717578";"2018-12-08 15:19:20";"Closed";0;900053;1
4;"0.8824207091095857";"0.9689224460589954";"0.9984211497383726";"2018-12-08 15:30:23";"Closed";4156;980340;1
5;"";"";"0.7279885917188159";"2018-12-08 15:38:39";"Closed";0;980340;1
6;"0.7122941005491563";"";"";"2018-12-09 22:29:49";"Timed out";0;980340;0
7;"";"";"0.10339303703608538";"2018-12-09 22:07:03";"Approved";0;900837;4
8;"";"0.5767043158895029";"0.8375448001975332";"2018-12-10 11:04:17";"Closed";4162;980340;1
9;"";"";"0.18089102089080833";"2018-12-10 11:19:30";"Approved";0;980802;9
10;"0.340532449915528";"0.2879724364230739";"0.5546811463346681";"2018-12-10 12:12:04";"Closed";4268;980340;1
11;"0.6146616978450861";"";"";"2018-12-10 16:57:19";"Timed out";0;900837;0
12;"";"0.2741366186203801";"";"2018-12-11 05:44:57";"Timed out";6051;900837;0
13;"3014152660518628";"2324302184214185";"5204435057323210";"2018-12-12 14:24:09";"Open";4156;900421;4
14;"3458668163425643";"6623914915948795";"3958598183828076";"2018-12-12 14:30:43";"Open";4162;900827;5
15;"2022884091132174";"5350270985592044";"7256539887551200";"2018-12-14 02:42:08";"Closed";6051;900837;1
16;"9948213405709892";"9721681357885600";"4634344467064376";"2018-12-14 09:46:55";"Timed out";6051;900837;0
17;"";"7164392838669170";"";"2018-12-18 07:05:21";"Timed out";4162;900827;0
18;"5736821235278272";"";"958554121350932";"2018-12-18 07:10:55";"Closed";0;900837;1
19;"";"2818389918896512";"8432264419321068";"2018-12-20 09:20:22";"Open";6051;900837;1
20;"9864623573974868";"5505406063430415";"9809591754297660";"2019-01-04 08:07:59";"Closed";6074;982377;1
21;"";"";"2827183490172292";"2019-01-04 08:08:44";"Closed";0;982377;5
22;"8757431782797197";"1704576615032255";"9540505100561356";"2019-01-04 10:42:56";"Closed";6062;983331;1
23;"2619017834434650";"4628979280786461";"";"2019-01-08 07:52:37";"Timed out";6056;980681;0
24;"";"9110584728101324";"";"2019-01-08 08:01:00";"Timed out";980681;981530;0
25;"";"9110584728101324";"";"2019-01-08 08:01:00";"Closed";980681;981530;0
26;"";"8973571702288873";"5603450725849488";"2019-01-10 01:55:01";"Closed";6069;900827;1
27;"1113910924485050";"";"";"2019-01-10 01:52:24";"Timed out";0;980507;0
28;"";"3765004351119832";"";"2019-01-11 08:13:05";"Timed out";4162;900837;0
29;"";"136249717911275";"2545112554531220";"2019-01-14 03:54:30";"Open";4162;984183;5
30;"7595133460334157";"3587738625068814";"";"2019-01-14 01:52:55";"Timed out";4162;983049;0
31;"";"535529924795835";"";"2019-01-14 02:08:40";"Timed out";4162;982150;0
32;"4541217429662266";"5777782026575966";"";"2019-01-16 08:26:01";"Timed out";5139;980507;0
33;"";"1003546024823612";"";"2019-01-14 02:33:42";"Timed out";6078;980504;0
35;"9529627438884636";"";"";"2019-01-15 07:40:37";"Timed out";0;981377;0
36;"6048529623933437";"";"";"2019-01-15 07:41:33";"Timed out";0;983331;0
37;"6420764063585306";"";"2048125881061723";"2019-01-15 11:09:04";"Open";0;980112;4
38;"";"";"6270000543518986";"2019-01-15 11:11:30";"Open";0;980112;4
39;"";"7941800145336247";"";"2019-01-16 08:21:13";"Timed out";4162;980504;0
40;"";"1875107520975197";"6489198604390721";"2019-01-17 09:12:55";"Closed";5538;981379;5
41;"";"8905756087887748";"";"2019-01-17 02:05:15";"Timed out";4162;982150;0
42;"2769630863456483";"";"";"2019-01-17 05:20:47";"Timed out";0;980183;0
43;"6430084553087";"1921739632918048";"8041130186024471";"2019-01-17 09:07:59";"Closed";5135;983214;1
44;"";"3882780412163043";"";"2019-01-17 10:10:16";"Timed out";6074;981648;0
45;"7775532648529965";"";"";"2019-01-18 01:15:12";"Timed out";0;980112;0
46;"";"7919544627090725";"";"2019-01-18 01:55:01";"Timed out";5139;985077;0
47;"";"8553122224296434";"2439312561897518";"2019-01-18 07:28:29";"Open";4162;983950;5
48;"";"3619943433949620";"";"2019-01-18 02:00:57";"Timed out";4162;984183;0
49;"";"1505011357146396";"6834038338851177";"2019-01-18 07:56:57";"Closed";6051;900837;1
50;"6288078984074729";"1842806076229842";"";"2019-01-18 09:20:13";"Timed out";6051;900837;0
51;"5914236884100000";"";"";"2019-01-19 00:09:52";"Timed out";0;991138;0
52;"6617637869024248";"";"";"2019-01-19 00:12:37";"Timed out";0;983895;0
53;"2248694031563468";"";"";"2019-01-20 01:56:21";"Timed out";0;983050;0
54;"4838593633060119";"";"";"2019-01-21 00:18:25";"Timed out";0;983758;0
55;"";"6095598471858741";"";"2019-01-21 02:11:53";"Timed out";4162;983331;0
56;"";"813501649798886";"";"2019-01-22 01:51:13";"Timed out";4162;982150;0
57;"";"8460531241873343";"";"2019-01-22 01:54:14";"Timed out";4162;980504;0
58;"1773531256526252";"716643993421526";"";"2019-01-25 01:53:37";"Timed out";4162;983331;0
59;"";"1036877882256262";"";"2019-01-23 01:16:13";"Timed out";5139;980507;0
60;"43359572854449";"8950002030255947";"";"2019-01-24 02:00:44";"Timed out";4162;980504;0
61;"3623996166437862";"";"";"2019-01-24 00:25:55";"Timed out";0;995077;0
62;"8233291924318140";"";"";"2019-01-25 08:52:52";"Timed out";0;985077;0
63;"2956100844547692";"";"";"2019-01-25 00:35:51";"Timed out";0;981174;0
64;"7130874287845289";"";"";"2019-01-24 00:46:33";"Timed out";0;983309;0
65;"4171493663758004";"";"";"2019-01-24 00:59:28";"Timed out";0;984183;0
66;"289990259617741";"";"";"2019-01-24 01:01:08";"Timed out";0;900827;0
67;"6962530742773134";"";"";"2019-01-24 01:01:52";"Timed out";0;982150;0
68;"4690206856031874";"";"";"2019-01-24 01:10:01";"Timed out";0;980183;0
69;"8501007235017476";"";"";"2019-01-24 01:27:23";"Timed out";0;981559;0
70;"4562341261415977";"";"";"2019-01-24 01:28:07";"Timed out";0;984498;0
71;"3107135826779826";"5102540375429807";"";"2019-01-25 00:16:20";"Timed out";5139;981379;0
72;"9493315384089948";"";"";"2019-01-25 09:02:02";"Timed out";0;981377;0
73;"633058429105886";"";"";"2019-01-25 00:25:12";"Timed out";0;980271;0
74;"6760939050859586";"";"";"2019-01-25 00:43:32";"Timed out";0;983950;0
75;"9090870404877856";"";"";"2019-01-25 00:48:36";"Timed out";0;983509;0
76;"6695809877091087";"";"";"2019-01-25 00:53:44";"Timed out";0;981491;0
77;"1054491573289773";"3982571514635002";"";"2019-01-25 01:58:41";"Timed out";1234;980507;0
78;"";"5140062636802772";"";"2019-01-25 04:06:37";"Timed out";6051;900837;0
79;"7547361803466247";"";"";"2019-01-28 00:41:23";"Timed out";0;983950;0
80;"7209160115729251";"";"";"2019-01-28 00:46:54";"Timed out";0;980671;0
81;"";"5669661127356110";"";"2019-01-28 01:53:40";"Timed out";4162;983331;0
82;"5586213363669256";"";"";"2019-01-28 02:01:21";"Timed out";0;981966;0
83;"344594718918557";"";"";"2019-01-28 09:06:22";"Timed out";0;981648;0
84;"";"60268776678784";"";"2019-01-29 09:22:36";"Timed out";6051;900837;0
85;"";"9761164185404468";"";"2019-01-29 01:50:12";"Timed out";4162;982150;0
86;"";"3418444981506455";"";"2019-01-30 01:48:55";"Timed out";4162;983331;0
87;"";"5834972354457754";"";"2019-01-30 01:52:02";"Timed out";5139;980507;0
88;"";"2541996749126074";"";"2019-01-31 01:53:08";"Timed out";4162;982150;0
89;"";"753966826779268";"";"2019-01-31 02:05:29";"Timed out";1234;982829;0
90;"2440849136754429";"";"";"2019-02-01 08:05:34";"Timed out";0;980334;0
91;"5048981976486276";"";"";"2019-02-04 00:21:23";"Timed out";0;980507;0
92;"2621578739005312";"";"";"2019-02-08 00:34:36";"Timed out";0;982150;0
93;"7270768854580730";"";"";"2019-02-07 00:14:01";"Timed out";0;984183;0
94;"2969462350288112";"";"";"2019-02-08 00:40:18";"Timed out";0;983950;0
95;"2306425482298418";"";"";"2019-02-08 00:58:31";"Timed out";0;982829;0
96;"3156816474856912";"";"";"2019-02-04 01:52:45";"Timed out";0;982156;0
97;"";"7788377028231373";"";"2019-02-04 01:54:34";"Timed out";5139;981379;0
98;"";"5519038432682878";"";"2019-02-04 01:59:08";"Timed out";4162;983049;0
99;"9780321502793804";"";"";"2019-02-04 01:59:16";"Timed out";0;980183;0
100;"9457357342627452";"";"";"2019-02-04 02:15:31";"Timed out";0;981648;0
101;"6258980622324364";"";"";"2019-02-06 00:11:23";"Timed out";0;983331;0
102;"5654266110031565";"";"";"2019-02-04 07:14:05";"Timed out";0;981377;0
103;"4921309981307743";"";"";"2019-02-05 08:49:23";"Timed out";0;983195;0
104;"249909665634520";"";"";"2019-02-05 00:28:18";"Timed out";0;980271;0
105;"9720868386729428";"3541033472370819";"";"2019-02-06 01:47:59";"Timed out";5139;980507;0
106;"2675475050369280";"";"";"2019-02-08 08:51:17";"Timed out";0;981377;0
107;"8115531556430262";"";"";"2019-02-07 00:43:47";"Timed out";0;984446;0
108;"7445446651445766";"3450452097892692";"";"2019-02-08 00:53:34";"Timed out";5537;981379;0
109;"4281374209620176";"";"";"2019-02-08 00:14:29";"Timed out";0;980507;0
110;"2120515713785894";"";"";"2019-02-08 01:59:14";"Timed out";0;985077;0
111;"7701051542857226";"";"";"2019-02-13 00:21:02";"Timed out";0;982150;0
112;"3797858452376779";"";"";"2019-02-11 00:44:15";"Timed out";0;980504;0
113;"61448393245639";"";"";"2019-02-13 01:00:17";"Timed out";0;983331;0
114;"9334239656595860";"";"";"2019-02-11 03:36:50";"Timed out";0;980337;0
115;"";"9706125703401848";"";"2019-02-12 10:33:11";"Timed out";6051;900837;0
116;"6847446482873173";"";"";"2019-02-12 00:57:54";"Timed out";0;984183;0
117;"2182111854407537";"";"";"2019-02-13 00:54:10";"Timed out";0;982829;0
118;"3393429348191713";"";"";"2019-02-12 02:19:19";"Timed out";0;980183;0
119;"3558000707967311";"";"";"2019-02-12 07:06:50";"Timed out";0;983950;0
120;"5505779712732974";"";"";"2019-02-12 09:11:44";"Timed out";0;983195;0
121;"2836108958585962";"";"";"2019-02-13 00:42:28";"Timed out";0;981151;0
122;"140331663454693";"";"";"2019-02-13 00:50:03";"Timed out";0;980504;0
123;"6505501608992797";"";"";"2019-02-18 23:58:01";"Timed out";0;983750;0
124;"9055557472539684";"";"";"2019-02-21 00:05:40";"Timed out";0;990556;0
125;"2593910173187367";"";"";"2019-02-22 03:54:11";"Timed out";0;983875;0
126;"1385121225396183";"";"";"2019-02-21 02:02:47";"Timed out";0;984509;0
127;"6535574756498273";"";"";"2019-02-22 04:50:18";"Timed out";0;983758;0
128;"4248781435280836";"";"";"2019-02-20 01:01:44";"Timed out";0;984620;0
129;"6809373624038150";"";"";"2019-02-22 05:06:37";"Timed out";0;983421;0
130;"7618076017303478";"";"";"2019-02-21 03:49:09";"Timed out";0;991138;0
131;"3771565323875901";"";"";"2019-02-22 05:19:29";"Timed out";0;984074;0
132;"2258049033739387";"";"";"2019-02-22 05:23:46";"Timed out";0;983731;0
133;"8722794877243246";"";"";"2019-02-20 04:22:41";"Timed out";0;983895;0
134;"1642464325001647";"";"";"2019-02-22 05:36:36";"Timed out";0;983521;0
135;"8237947437447403";"";"";"2019-02-21 04:46:57";"Timed out";0;981772;0
136;"3481636974643670";"";"";"2019-02-21 04:50:54";"Timed out";0;985048;0
137;"2299830974630116";"";"";"2019-02-21 04:55:15";"Timed out";0;981394;0
138;"7017957729968401";"";"";"2019-02-21 05:11:56";"Timed out";0;984517;0
139;"1830766417155661";"";"";"2019-02-19 03:49:35";"Timed out";0;984859;0
140;"5040856273678172";"";"";"2019-02-16 03:11:31";"Timed out";0;982913;0
141;"8245506218207016";"";"";"2019-02-14 00:36:03";"Timed out";0;100509;0
142;"";"7142377519750690";"";"2019-02-14 02:03:57";"Timed out";3038;981379;0
143;"";"8903546215483287";"";"2019-02-15 01:52:15";"Timed out";4162;980504;0
144;"";"2767283703119510";"";"2019-02-15 02:05:17";"Timed out";5139;985077;0
145;"5092473833236345";"";"";"2019-02-15 02:17:52";"Timed out";0;980183;0
146;"1047071071429715";"";"";"2019-02-19 01:02:49";"Timed out";0;983950;0
147;"6915943408833763";"";"";"2019-02-18 02:44:53";"Timed out";0;982150;0
148;"7786503086540468";"";"";"2019-02-18 02:55:18";"Timed out";0;982829;0
149;"3542972819700826";"";"";"2019-02-18 07:14:46";"Timed out";0;981377;0
150;"7676856649829747";"";"";"2019-02-18 09:27:30";"Timed out";0;982196;0
151;"2157942323032259";"";"";"2019-02-22 05:43:48";"Timed out";0;982913;0
152;"7498960648592964";"";"";"2019-02-19 00:16:34";"Timed out";0;984446;0
153;"7164233623223156";"";"";"2019-02-19 00:40:26";"Timed out";0;980337;0
154;"3180210227787755";"";"";"2019-02-20 22:59:23";"Timed out";0;983750;0
155;"4654122405194221";"";"";"2019-02-20 00:53:48";"Timed out";0;984183;0
156;"";"3262110935701655";"";"2019-02-20 01:53:10";"Timed out";5139;980507;0
157;"7013298338949551";"";"";"2019-02-20 04:12:30";"Timed out";0;983589;0
158;"4839045597137331";"";"";"2019-02-21 00:44:12";"Timed out";0;983950;0
159;"6159779693428454";"";"";"2019-02-21 00:53:11";"Timed out";0;982150;0
160;"7698440941618573";"";"";"2019-02-21 01:01:19";"Timed out";0;980504;0
161;"9298814441493472";"";"";"2019-02-24 22:48:42";"Timed out";0;991147;0
162;"4319846674528255";"";"";"2019-02-22 02:18:53";"Timed out";0;983692;0
163;"";"9260227724683372";"";"2019-02-22 02:21:35";"Timed out";6051;900837;0
164;"4795919792932591";"";"";"2019-02-25 00:10:01";"Timed out";0;990284;0
165;"4285488621980634";"";"";"2019-02-25 00:34:45";"Timed out";0;983541;0
166;"Vo9BSr7VdDxglrBHU9kXc1gt9lew92HH01dIHd2P37HAUxC0wyk7vtW7f6lUYVNI";"";"";"2019-02-25 01:33:13";"Timed out";0;981966;0
167;"Vo9BSr7VdDxglrBHU9kXc1gt9lew92HH01dIHd2P37HAUxC0wyk7vtW7f6lUYVNI";"";"";"2019-02-25 01:35:53";"Timed out";0;982827;0
168;"3006808943884887";"";"";"2019-02-22 03:50:53";"Timed out";0;983750;0
169;"6354777013033544";"";"";"2019-02-22 05:32:11";"Timed out";0;983895;0
170;"4091784729608153";"";"";"2019-02-22 05:40:23";"Timed out";0;982;0
171;"5640077250281673";"";"";"2019-02-24 23:50:49";"Timed out";0;982581;0
172;"4410842340042006";"";"";"2019-02-24 23:23:19";"Timed out";0;982909;0
173;"2448831994620396";"";"";"2019-02-24 23:56:07";"Timed out";0;983724;0
174;"5718918395281002";"";"";"2019-02-25 00:19:18";"Timed out";0;983509;0
175;"356230773372442";"";"";"2019-02-25 00:48:56";"Timed out";0;983345;0
176;"2878550549305979";"";"";"2019-02-23 08:06:25";"Timed out";0;982944;0
177;"Vo9BSr7VdDxglrBHU9kXc1gt9lew92HH01dIHd2P37HAUxC0wyk7vtW7f6lUYVNI";"";"";"2019-02-25 01:32:38";"Timed out";0;984066;0
178;"6908485218853187";"";"";"2019-02-25 00:53:53";"Timed out";0;980671;0
179;"8973903692839745";"";"";"2019-02-25 01:28:16";"Timed out";0;900837;0
180;"Vo9BSr7VdDxglrBHU9kXc1gt9lew92HH01dIHd2P37HAUxC0wyk7vtW7f6lUYVNI";"";"";"2019-02-25 01:36:25";"Timed out";0;982460;0
181;"Vo9BSr7VdDxglrBHU9kXc1gt9lew92HH01dIHd2P37HAUxC0wyk7vtW7f6lUYVNI";"";"";"2019-02-25 01:36:57";"Timed out";0;983895;0
182;"sJQoqDDqxaCNyylbkSxvM2imB0HNX3eEnXYMhn5arjwKMTCDMVp7TUDOzOsyFlzC";"";"";"2019-02-26 00:26:27";"Timed out";0;982150;0
183;"J2fkj1S38TwHKLJiYGfK9x26AD3Du0YIA5qZV93blUAag7Z6oCEd0I24dYy19CBY";"";"";"2019-02-28 00:29:10";"Timed out";0;983950;0
184;"J2fkj1S38TwHKLJiYGfK9x26AD3Du0YIA5qZV93blUAag7Z6oCEd0I24dYy19CBY";"";"";"2019-02-27 00:54:25";"Timed out";0;984446;0
185;"J2fkj1S38TwHKLJiYGfK9x26AD3Du0YIA5qZV93blUAag7Z6oCEd0I24dYy19CBY";"";"";"2019-02-27 00:55:14";"Timed out";0;982829;0
186;"sJQoqDDqxaCNyylbkSxvM2imB0HNX3eEnXYMhn5arjwKMTCDMVp7TUDOzOsyFlzC";"";"";"2019-02-26 00:58:44";"Timed out";0;980504;0
187;"J2fkj1S38TwHKLJiYGfK9x26AD3Du0YIA5qZV93blUAag7Z6oCEd0I24dYy19CBY";"";"";"2019-02-27 00:37:23";"Timed out";0;983331;0
188;"J2fkj1S38TwHKLJiYGfK9x26AD3Du0YIA5qZV93blUAag7Z6oCEd0I24dYy19CBY";"";"";"2019-02-28 00:14:49";"Timed out";0;983195;0
189;"J2fkj1S38TwHKLJiYGfK9x26AD3Du0YIA5qZV93blUAag7Z6oCEd0I24dYy19CBY";"";"";"2019-02-28 00:34:58";"Timed out";0;982150;0
190;"q9SOk3aAC1yoVZEc0CrDKFrMl500UF8xiU63wudiaj054EvTFZvhHjRCfUp7s2yx";"";"";"2019-03-01 00:11:37";"Timed out";0;980507;0
191;"vPUC678FdlHldPgOCHhjBVROVrJfoX5u8QN5p36iZTRAJyktEizumz1VLdekWEd3";"";"";"2019-03-01 00:57:57";"Timed out";0;984183;0
192;"8PeGehBZt11q3IJaCq8GFqISPSiQH5A8rfGmvjmXi60cJttLU9XuoVcnARzgKwmY";"";"";"2019-02-28 07:34:27";"Timed out";0;900827;0
193;"vPUC678FdlHldPgOCHhjBVROVrJfoX5u8QN5p36iZTRAJyktEizumz1VLdekWEd3";"";"";"2019-03-01 00:55:54";"Timed out";0;982829;0
194;"izobybs2WLsnsrSSrCUKMbFo7uyICt8OmjDNO1NoYQD8cRscZweYgr4aLdi8axPn";"L58r3dF3RSajB4EfCHRwJZZv8ETlujFd5cU7qTsILEJLKEYzNyvWXxa2Clc4xxBv";"";"2019-03-01 01:44:00";"Timed out";5538;985077;0
195;"izobybs2WLsnsrSSrCUKMbFo7uyICt8OmjDNO1NoYQD8cRscZweYgr4aLdi8axPn";"";"";"2019-03-01 01:31:45";"Timed out";0;981379;0
196;"abqxPujRbScAnbZV0OREWwy0h9r2GWO7oTNET9QXZ9qCiusb6hHutStGN03knnHC";"";"";"2019-03-04 07:29:04";"Timed out";0;900827;0
197;"";"q9B1vppT9vX03jNFJZiBYXCYGAWLKIMJMxDaxDH2gB4sTI70leOTJN2eqQzX3a1F";"";"2019-03-05 01:57:00";"Pending";4162;980504;0
