"id";"group_number";"task1";"task2";"task3";"task4";"task5"
1;"Training Dept";"Light Vehicle Journey";"Personnel Transport";"";"";""
2;"Transportation";"Light Vehicle Journey";"Personnel Transport";"";"";""
3;"Dispatches";"Light Vehicle Journey";"Personnel Transport";"";"";""
4;"Safety Department";"Light Vehicle Journey";"Personnel Transport";"";"";""
5;"Doctor";"Light Vehicle Journey";"Personnel Transport";"";"";""
6;"Chief Doctor";"Light Vehicle Journey";"Personnel Transport";"";"";""
7;"Dispatch";"Light Vehicle Journey";"Personnel Transport";"";"";""
8;"Fleet Shop Mechanics";"Light Vehicle Journey";"Personnel Transport";"";"";""
9;"Drivers";"Light Vehicle Journey";"Personnel Transport";"";"";""
10;"Safety Engineers";"Light Vehicle Journey";"Personnel Transport";"";"";""
11;"Director Procurement";"Light Vehicle Journey";"Personnel Transport";"";"";""
12;"Mechanics (Bishkek / Mine Site)";"Light Vehicle Journey";"Personnel Transport";"";"";""
13;"Safety Superintendent";"Light Vehicle Journey";"Personnel Transport";"";"";""
14;"HIRAC";"";"";"";"";""
15;"Mining";"";"";"";"";""
16;"Earthwork";"";"";"";"";""
17;"Inspection";"Heavy Mobile Equipment";"Light Mobile Equipment";"";"";""
18;"Incident";"Heavy Mobile Equipment";"Light Mobile Equipment";"";"";""
