"id";"userId";"jobFunctionId"
1;1;9
2;1;19
3;2;9
4;2;19
5;3;19
6;3;9
7;4;19
8;4;9
9;5;9
10;6;9
11;7;9
12;8;9
13;9;9
14;10;9
15;11;9
16;12;9
17;13;9
18;14;9
19;15;9
20;16;9
21;17;9
22;18;9
23;19;9
24;20;9
25;21;9
26;22;9
27;23;9
28;24;9
29;25;9
30;26;9
31;27;9
32;28;9
33;29;9
34;30;9
35;31;9
36;32;9
37;33;9
38;34;9
39;35;9
40;36;9
41;37;9
42;38;9
43;39;9
44;40;9
45;41;9
46;42;9
47;43;9
48;44;9
49;45;9
50;46;9
51;47;9
52;48;9
53;49;9
54;50;9
55;51;9
56;52;9
57;53;9
58;54;9
59;55;9
60;56;9
61;57;9
62;58;9
63;59;9
64;60;9
65;61;9
66;62;9
67;63;9
68;64;9
69;65;9
70;66;9
71;67;9
72;68;9
73;69;9
74;70;9
75;71;9
76;72;9
77;73;9
78;74;9
79;75;9
80;76;9
81;77;9
82;78;9
83;79;9
84;80;9
85;81;9
86;82;9
87;83;9
88;84;9
89;85;9
90;86;9
91;87;9
92;88;9
93;89;9
94;90;9
95;91;9
96;92;9
97;93;9
98;94;9
99;95;9
100;96;9
101;97;9
102;98;9
103;99;9
104;100;9
105;101;9
106;102;9
107;103;9
108;104;9
109;105;9
110;106;9
111;107;9
112;108;9
113;109;9
114;110;9
115;111;9
116;112;9
117;113;9
118;114;9
119;115;9
120;116;9
121;117;9
122;118;9
123;119;9
124;120;9
125;121;9
126;122;9
127;123;9
128;124;9
129;125;9
130;126;9
131;127;9
132;128;9
133;129;9
134;130;9
135;131;9
136;132;9
137;133;9
138;134;9
139;135;9
140;136;9
141;137;9
142;138;9
143;139;9
144;140;9
145;141;9
146;142;9
147;143;9
148;144;9
149;145;9
150;146;9
151;147;9
152;148;9
153;149;9
154;150;9
155;151;9
156;152;9
157;153;9
158;154;9
159;155;9
160;156;9
161;157;9
162;158;9
163;159;9
164;160;9
165;161;9
166;162;9
167;163;9
168;164;9
169;165;9
170;166;9
171;167;9
172;168;9
173;169;9
174;170;9
175;171;9
176;172;9
177;173;9
178;174;9
179;175;9
180;176;9
181;177;9
182;178;9
183;179;9
184;180;9
185;181;9
186;182;9
187;183;9
188;184;9
189;185;9
190;186;9
191;187;9
192;188;9
193;189;9
194;190;9
195;191;9
196;192;9
197;193;9
198;194;9
199;195;9
200;196;9
201;197;9
202;198;9
203;199;9
204;200;9
205;201;9
206;202;9
207;203;9
208;204;9
209;205;9
210;206;9
211;207;9
212;208;9
213;209;9
214;210;9
215;211;9
216;212;9
217;213;9
218;214;9
219;215;9
220;216;9
221;217;9
222;218;9
223;219;9
224;220;9
225;221;9
226;222;9
227;223;9
228;224;9
229;225;9
230;226;9
231;227;9
232;228;9
233;229;9
234;230;9
235;231;9
236;232;9
237;233;9
