"id";"jobFunction";"jobTask";"language";"phone";"first_name";"last_name";"realm";"username";"password";"email";"emailVerified";"verificationToken";"createdAt";"updatedAt";"jobFunction_id";"licence_no";"torex_guid";"isPasswordChanged"
10004;"Medical";"Group C19 Screening";"";"";"Wesley";"Chingee";"";"Wesley";"$2a$10$vjGrD68hBVCk7ipeUG3/8OMOcUR2WUVGkMQZ0BV3eNjjjsAWzuxZu";"bruno.rios@torexgold.com";1;"";"2020-01-14 00:00:00";"2020-01-14 00:00:00";10;"";"c1138db7-a8f4-443a-919e-a4a7b138c180";1
10005;"";"";"";"";"Vincent";"Chingee";"";"Vincent";"$2a$10$vjGrD68hBVCk7ipeUG3/8OMOcUR2WUVGkMQZ0BV3eNjjjsAWzuxZu";"hugo.castaneda@torexgold.com";1;"";"2020-01-14 00:00:00";"2020-01-14 00:00:00";10;"";"451bec2e-7af6-4643-9bd7-43eadaa7893f";1
10016;"";"";"";"";"Raymond";"Gelinas";"";"Raymond";"$2a$10$vjGrD68hBVCk7ipeUG3/8OMOcUR2WUVGkMQZ0BV3eNjjjsAWzuxZu";"cesar.lopez@torexgold.com";1;"";"2020-01-14 00:00:00";"2020-01-14 00:00:00";10;"";"ce5bf792-0a03-49cb-b724-85b525aa3d62";1
10024;"";"";"";"";"Matthew";"Bergsma";"";"Matthew";"$2a$10$vjGrD68hBVCk7ipeUG3/8OMOcUR2WUVGkMQZ0BV3eNjjjsAWzuxZu";"oscar.rodriguez@torexgold.com";1;"";"2020-01-14 00:00:00";"2020-01-14 00:00:00";10;"";"0643fb37-0b31-48d1-a2c6-dfe3a99e1c61";1
10032;"";"";"";"";"Mitchell";"Chartrand";"";"Mitchell";"$2a$10$vjGrD68hBVCk7ipeUG3/8OMOcUR2WUVGkMQZ0BV3eNjjjsAWzuxZu";"luis.rendon@torexgold.com";1;"";"2020-01-14 00:00:00";"2020-01-14 00:00:00";10;"";"5b6fd32b-12c1-43b3-9fab-351213b6017c";1
10039;"";"";"";"";"Randolph";"Salewski";"";"Randolph";"$2a$10$vjGrD68hBVCk7ipeUG3/8OMOcUR2WUVGkMQZ0BV3eNjjjsAWzuxZu";"cristhian.valle@torexgold.com";1;"";"2020-01-14 00:00:00";"2020-01-14 00:00:00";10;"";"653b2f4d-dec5-4a7b-ae70-d444dacfc2e7";1
10040;"Driver";"Vehicle Fit for Purpose";"";"";"Graeme";"Roper";"";"Graeme";"$2a$10$vjGrD68hBVCk7ipeUG3/8OMOcUR2WUVGkMQZ0BV3eNjjjsAWzuxZu";"blanca.bernal@torexgold.com";1;"";"2020-01-14 00:00:00";"2020-01-14 00:00:00";10;"";"2b895d00-1409-4671-ac64-44ef331c840a";1
10043;"";"";"";"";"Rolanda";"Barabonoff";"";"Rolanda";"$2a$10$vjGrD68hBVCk7ipeUG3/8OMOcUR2WUVGkMQZ0BV3eNjjjsAWzuxZu";"emmanuel.rodriguez@torexgold.com";1;"";"2020-01-14 00:00:00";"2020-01-14 00:00:00";10;"";"05c4f3fd-07b1-4d9f-93c2-5e85b453944f";1
10058;"";"";"";"";"Calvin";"Barrett";"";"Calvin";"$2a$10$vjGrD68hBVCk7ipeUG3/8OMOcUR2WUVGkMQZ0BV3eNjjjsAWzuxZu";"obedflores@minetell.com";1;"";"2020-01-14 00:00:00";"2020-01-14 00:00:00";10;"";"b45364b7-0285-4900-8d31-4931cddff3eb";1
10106;"";"";"";"";"Brittany";"Croteau";"";"Brittany";"$2a$10$vjGrD68hBVCk7ipeUG3/8OMOcUR2WUVGkMQZ0BV3eNjjjsAWzuxZu";"delia.manjarrez@torexgold.com";1;"";"2020-01-14 00:00:00";"2020-01-14 00:00:00";10;"";"45cc847e-cc1f-4c15-bdab-5257caecc5d0";1
10108;"";"";"";"";"Walter";"Ritchie";"";"Walter";"$2a$10$vjGrD68hBVCk7ipeUG3/8OMOcUR2WUVGkMQZ0BV3eNjjjsAWzuxZu";"jonatan.garcia@torexgold.com";1;"";"2020-01-14 00:00:00";"2020-01-14 00:00:00";10;"";"bee0c7c8-3282-4b98-a08a-97429b044347";1
10112;"";"";"";"";"Pauline";"Allan";"";"Pauline";"$2a$10$vjGrD68hBVCk7ipeUG3/8OMOcUR2WUVGkMQZ0BV3eNjjjsAWzuxZu";"carolina.vazquez@torexgold.com";1;"";"2020-01-14 00:00:00";"2020-01-14 00:00:00";10;"";"bf30499c-10a2-4289-9715-264937bc2fd4";1
10115;"";"";"";"";"Loretta";"Moise";"";"Loretta";"$2a$10$vjGrD68hBVCk7ipeUG3/8OMOcUR2WUVGkMQZ0BV3eNjjjsAWzuxZu";"pedrorojas@minetell.com";1;"";"2020-01-14 00:00:00";"2020-01-14 00:00:00";10;"";"6084beb2-f69b-41a2-8269-6684a644fb45";1
10117;"";"";"";"";"Patricia";"Coulter";"";"Patricia";"$2a$10$vjGrD68hBVCk7ipeUG3/8OMOcUR2WUVGkMQZ0BV3eNjjjsAWzuxZu";"natanael.perez@torexgold.com";1;"";"2020-01-14 00:00:00";"2020-01-14 00:00:00";10;"";"927344bb-894d-4ad3-ae06-36f6983f7f26";1
10122;"";"";"";"";"Ellen";"Leigh";"";"Ellen";"$2a$10$vjGrD68hBVCk7ipeUG3/8OMOcUR2WUVGkMQZ0BV3eNjjjsAWzuxZu";"david.maurno@torexgold.com";1;"";"2020-01-14 00:00:00";"2020-01-14 00:00:00";10;"";"ef63fc4b-3984-4591-94d7-74ebdb57f1af";1
10125;"";"";"";"";"Danielle";"Jenks";"";"Danielle";"$2a$10$vjGrD68hBVCk7ipeUG3/8OMOcUR2WUVGkMQZ0BV3eNjjjsAWzuxZu";"david.silva@torexgold.com";1;"";"2020-01-14 00:00:00";"2020-01-14 00:00:00";10;"";"918b8b74-6b4c-4dd2-bbc0-d119d2ad6656";1
10131;"";"";"";"";"Jeff";"Williams";"";"Jeff";"$2a$10$vjGrD68hBVCk7ipeUG3/8OMOcUR2WUVGkMQZ0BV3eNjjjsAWzuxZu";"manuel.hernandez@torexgold.com";1;"";"2020-01-14 00:00:00";"2020-01-14 00:00:00";10;"";"fbf6011b-a9d6-4a2c-bfa6-5da2efea79f5";1
10153;"";"";"";"";"Liam";"Schulze";"";"Liam";"$2a$10$vjGrD68hBVCk7ipeUG3/8OMOcUR2WUVGkMQZ0BV3eNjjjsAWzuxZu";"carlosvelo@minetell.com";1;"";"2020-01-14 00:00:00";"2020-01-14 00:00:00";10;"";"2ede4953-d602-4105-965a-7176f7295e04";1
10161;"";"";"";"";"Geoffrey";"Maes";"";"Geoffrey";"$2a$10$vjGrD68hBVCk7ipeUG3/8OMOcUR2WUVGkMQZ0BV3eNjjjsAWzuxZu";"evelio.ibarra@torexgold.com";1;"";"2020-01-14 00:00:00";"2020-01-14 00:00:00";10;"";"ea2f4b59-9f04-4e25-abc7-de6eecb20d98";1
10162;"";"";"";"";"Michael";"Daley";"";"Michael";"$2a$10$vjGrD68hBVCk7ipeUG3/8OMOcUR2WUVGkMQZ0BV3eNjjjsAWzuxZu";"david.ramirez@torexgold.com";1;"";"2020-01-14 00:00:00";"2020-01-14 00:00:00";10;"";"f25e6ce2-6743-47be-8f11-418c835640b4";1
10167;"";"";"";"";"Jerry";"Glassel";"";"Jerry";"$2a$10$vjGrD68hBVCk7ipeUG3/8OMOcUR2WUVGkMQZ0BV3eNjjjsAWzuxZu";"victor.lopez@torexgold.com";1;"";"2020-01-14 00:00:00";"2020-01-14 00:00:00";10;"";"da0a3c8c-31e7-459c-b775-e133fba167a7";1
10170;"";"";"";"";"Andrew";"Fournier";"";"Andrew";"$2a$10$vjGrD68hBVCk7ipeUG3/8OMOcUR2WUVGkMQZ0BV3eNjjjsAWzuxZu";"jorge.rosado@torexgold.com";1;"";"2020-01-14 00:00:00";"2020-01-14 00:00:00";10;"";"d65e64ac-bfd6-4017-aed1-dc2e95cc5a6a";1
10172;"";"";"";"";"Gregory";"Charko";"";"Gregory";"$2a$10$vjGrD68hBVCk7ipeUG3/8OMOcUR2WUVGkMQZ0BV3eNjjjsAWzuxZu";"carlos.olguin@torexgold.com";1;"";"2020-01-14 00:00:00";"2020-01-14 00:00:00";10;"";"53c3a2da-2491-47a1-bff1-70976ca5623f";1
10175;"";"";"";"";"Martin";"Bryan";"";"Martin";"$2a$10$vjGrD68hBVCk7ipeUG3/8OMOcUR2WUVGkMQZ0BV3eNjjjsAWzuxZu";"benjamin.gallardo@torexgold.com";1;"";"2020-01-14 00:00:00";"2020-01-14 00:00:00";10;"";"95ddf937-481f-480b-b33e-7d1a64aaa184";1
10176;"";"";"";"";"Medhat";"Shehata";"";"Medhat";"$2a$10$vjGrD68hBVCk7ipeUG3/8OMOcUR2WUVGkMQZ0BV3eNjjjsAWzuxZu";"cristian.castanon@torexgold.com";1;"";"2020-01-14 00:00:00";"2020-01-14 00:00:00";10;"";"d77ddd56-197a-41d6-98dc-3bfbabf3a264";1
10197;"";"";"";"";"Kevin";"Gannon";"";"Kevin";"$2a$10$vjGrD68hBVCk7ipeUG3/8OMOcUR2WUVGkMQZ0BV3eNjjjsAWzuxZu";"daniel.diaz@torexgold.com";1;"";"2020-01-14 00:00:00";"2020-01-14 00:00:00";10;"";"bf3ca5f9-b680-4896-87b5-cb753885e21c";1
10208;"";"";"";"";"Randy";"Kilba";"";"Randy";"$2a$10$vjGrD68hBVCk7ipeUG3/8OMOcUR2WUVGkMQZ0BV3eNjjjsAWzuxZu";"marcos.miranda@torexgold.com";1;"";"2020-01-14 00:00:00";"2020-01-14 00:00:00";10;"";"acfdf571-08d8-45d9-8985-f144091a1259";1
10225;"";"";"";"";"Douglas";"Berthelsen";"";"Douglas";"$2a$10$vjGrD68hBVCk7ipeUG3/8OMOcUR2WUVGkMQZ0BV3eNjjjsAWzuxZu";"fernando.miranda@torexgold.com";1;"";"2020-01-14 00:00:00";"2020-01-14 00:00:00";10;"";"e86447d5-8051-4418-946c-da2829c103f1";1
10226;"";"";"";"";"William";"Kennedy";"";"William";"$2a$10$vjGrD68hBVCk7ipeUG3/8OMOcUR2WUVGkMQZ0BV3eNjjjsAWzuxZu";"arturo.carrera@torexgold.com";1;"";"2020-01-14 00:00:00";"2020-01-14 00:00:00";10;"";"a741f1a4-d787-47c5-adce-0475be6f407f";1
10230;"";"";"";"";"Tyler";"Gray";"";"Tyler";"$2a$10$vjGrD68hBVCk7ipeUG3/8OMOcUR2WUVGkMQZ0BV3eNjjjsAWzuxZu";"fabian.armenta@torexgold.com";1;"";"2020-01-14 00:00:00";"2020-01-14 00:00:00";10;"";"66569be4-82b4-492d-af1e-6e7e1eb37680";1
10232;"";"";"";"";"Ricki";"Redlack";"";"Ricki";"$2a$10$vjGrD68hBVCk7ipeUG3/8OMOcUR2WUVGkMQZ0BV3eNjjjsAWzuxZu";"edgar.hernandez@torexgold.com";1;"";"2020-01-14 00:00:00";"2020-01-14 00:00:00";10;"";"40a38f74-be07-4a04-9aca-e97ca3278db6";1
10235;"";"";"";"";"Kent";"Hurley";"";"Kent";"$2a$10$vjGrD68hBVCk7ipeUG3/8OMOcUR2WUVGkMQZ0BV3eNjjjsAWzuxZu";"omar.trejo@torexgold.com";1;"";"2020-01-14 00:00:00";"2020-01-14 00:00:00";10;"";"fc35133e-274c-4938-86ab-52383f54f071";1
10245;"";"";"";"";"Jonna";"Deutscher";"";"Jonna";"$2a$10$vjGrD68hBVCk7ipeUG3/8OMOcUR2WUVGkMQZ0BV3eNjjjsAWzuxZu";"angel.gaxiola@torexgold.com";1;"";"2020-01-14 00:00:00";"2020-01-14 00:00:00";10;"";"eafc6dbd-2224-4b50-a5cc-004b722d9f38";1
10246;"";"";"";"";"Juan";"Strouse";"";"Juan";"$2a$10$vjGrD68hBVCk7ipeUG3/8OMOcUR2WUVGkMQZ0BV3eNjjjsAWzuxZu";"israel.sanchez@torexgold.com";1;"";"2020-01-14 00:00:00";"2020-01-14 00:00:00";10;"";"b5ac5e5f-fe82-4175-bf1a-f6ecee00762e";1
10249;"";"";"";"";"Rachel";"Prince";"";"Rachel";"$2a$10$vjGrD68hBVCk7ipeUG3/8OMOcUR2WUVGkMQZ0BV3eNjjjsAWzuxZu";"victor.guerrero@torexgold.com";1;"";"2020-01-14 00:00:00";"2020-01-14 00:00:00";10;"";"28d60cc6-8f2f-4197-ba6e-d6fd321cbbcd";1
10251;"";"";"";"";"Todd";"Thompson";"";"Todd";"$2a$10$vjGrD68hBVCk7ipeUG3/8OMOcUR2WUVGkMQZ0BV3eNjjjsAWzuxZu";"alvaro.floresrodriquez@torexgold.com";1;"";"2020-01-14 00:00:00";"2020-01-14 00:00:00";10;"";"832e1cf9-86a0-4221-98b7-5747a8571cbd";1
10252;"";"";"";"";"Tengfei";"Yue";"";"Tengfei";"$2a$10$vjGrD68hBVCk7ipeUG3/8OMOcUR2WUVGkMQZ0BV3eNjjjsAWzuxZu";"jose.orozco@torexgold.com";1;"";"2020-01-14 00:00:00";"2020-01-14 00:00:00";10;"";"0879327e-ddea-4417-8c7e-cfe7ef77a1cc";1
10254;"";"";"";"";"Robert";"Dupuis";"";"Robert";"$2a$10$vjGrD68hBVCk7ipeUG3/8OMOcUR2WUVGkMQZ0BV3eNjjjsAWzuxZu";"marco.marin@torexgold.com";1;"";"2020-01-14 00:00:00";"2020-01-14 00:00:00";10;"";"5510d5df-15fb-41d2-9c27-c600afb1c310";1
10255;"";"";"";"";"Shaun";"Page";"";"Shaun";"$2a$10$vjGrD68hBVCk7ipeUG3/8OMOcUR2WUVGkMQZ0BV3eNjjjsAWzuxZu";"jose.castanon@torexgold.com";1;"";"2020-01-14 00:00:00";"2020-01-14 00:00:00";10;"";"884aaad0-7b66-42f0-a288-d8b2db45885e";1
10266;"";"";"";"";"Penny";"Tennant";"";"Penny";"$2a$10$vjGrD68hBVCk7ipeUG3/8OMOcUR2WUVGkMQZ0BV3eNjjjsAWzuxZu";"davidmartinez@minetell.com";1;"";"2020-01-14 00:00:00";"2020-01-14 00:00:00";10;"";"273f3611-1440-4733-9c32-d147f859d2e9";1
10270;"";"";"";"";"Walter";"Cunningham";"";"Walter";"$2a$10$vjGrD68hBVCk7ipeUG3/8OMOcUR2WUVGkMQZ0BV3eNjjjsAWzuxZu";"saul.aguilar@torexgold.com";1;"";"2020-01-14 00:00:00";"2020-01-14 00:00:00";10;"";"29ec71ce-91c7-4ba0-a46e-9cb055b562a9";1
10281;"";"";"";"";"William";"Vanderwoerd";"";"William";"$2a$10$vjGrD68hBVCk7ipeUG3/8OMOcUR2WUVGkMQZ0BV3eNjjjsAWzuxZu";"cristian.nunez@torexgold.com";1;"";"2020-01-14 00:00:00";"2020-01-14 00:00:00";10;"";"758d99d9-be98-4bb7-ac46-2aae4b093ab1";1
10283;"";"";"";"";"Norman";"Ho";"";"Norman";"$2a$10$vjGrD68hBVCk7ipeUG3/8OMOcUR2WUVGkMQZ0BV3eNjjjsAWzuxZu";"jennifer.betancourt@torexgold.com";1;"";"2020-01-14 00:00:00";"2020-01-14 00:00:00";10;"";"7f69a330-4f0a-4b33-9c61-37de7938d439";1
10287;"";"";"";"";"En Qi";"Wang";"";"En Qi";"$2a$10$vjGrD68hBVCk7ipeUG3/8OMOcUR2WUVGkMQZ0BV3eNjjjsAWzuxZu";"olaf.scholtysek@torexgold.com";1;"";"2020-01-14 00:00:00";"2020-01-14 00:00:00";10;"";"c9d74365-a328-4a5d-a713-0aa3e51368f7";1
10300;"";"";"";"";"Murray";"Garland";"";"Murray";"$2a$10$vjGrD68hBVCk7ipeUG3/8OMOcUR2WUVGkMQZ0BV3eNjjjsAWzuxZu";"davidsaavedra@minetell.com";1;"";"2020-01-14 00:00:00";"2020-01-14 00:00:00";10;"";"08f74f7b-5c90-446a-8123-495a3877cecf";1
17884;"";"";"";"";"Charles";"Campbell";"";"Charles";"$2a$10$vjGrD68hBVCk7ipeUG3/8OMOcUR2WUVGkMQZ0BV3eNjjjsAWzuxZu";"hugocarrera@minetell.com";1;"";"2020-01-14 00:00:00";"2020-01-14 00:00:00";10;"";"e89b8b30-a707-48d3-83ec-86745fb2b467";1
20018;"";"";"";"";"Matthew";"Brise";"";"Matthew";"$2a$10$vjGrD68hBVCk7ipeUG3/8OMOcUR2WUVGkMQZ0BV3eNjjjsAWzuxZu";"juan.fuentes@torexgold.com";1;"";"2020-01-14 00:00:00";"2020-01-14 00:00:00";10;"";"da76c56b-405b-4b1d-81e0-6e26a93e9dcb";1
20051;"";"";"";"";"Beau";"Russell";"";"Beau";"$2a$10$vjGrD68hBVCk7ipeUG3/8OMOcUR2WUVGkMQZ0BV3eNjjjsAWzuxZu";"oscarcuevas@minetell.com";1;"";"2020-01-14 00:00:00";"2020-01-14 00:00:00";10;"";"f5ba7523-1695-4cd5-9150-7115730e3592";1
20070;"";"";"";"";"Tammy";"Briere";"";"Tammy";"$2a$10$vjGrD68hBVCk7ipeUG3/8OMOcUR2WUVGkMQZ0BV3eNjjjsAWzuxZu";"raymundocastrejon@minetell.com";1;"";"2020-01-14 00:00:00";"2020-01-14 00:00:00";10;"";"3ccc9ca9-0fb6-498b-b2da-255b3182fe00";1
30001;"";"";"";"";"Lawrence";"Chauvin";"";"Lawrence";"$2a$10$vjGrD68hBVCk7ipeUG3/8OMOcUR2WUVGkMQZ0BV3eNjjjsAWzuxZu";"gabriel.garcia@torexgold.com";1;"";"2020-01-14 00:00:00";"2020-01-14 00:00:00";10;"";"12ba2664-985f-45c6-9286-2c3e3e0f2fb3";1
30004;"";"";"";"";"Martin";"Willick";"";"Martin";"$2a$10$vjGrD68hBVCk7ipeUG3/8OMOcUR2WUVGkMQZ0BV3eNjjjsAWzuxZu";"marisolenriquez@minetell.com";1;"";"2020-01-14 00:00:00";"2020-01-14 00:00:00";10;"";"be901483-d494-4e34-8e67-b990a4e1e4df";1
30005;"";"";"";"";"Bradley";"Botrakoff";"";"Bradley";"$2a$10$vjGrD68hBVCk7ipeUG3/8OMOcUR2WUVGkMQZ0BV3eNjjjsAWzuxZu";"humberto.carreto@torexgold.com";1;"";"2020-01-14 00:00:00";"2020-01-14 00:00:00";10;"";"685a61c2-74c6-4a24-98d4-75c6b9e880f2";1
30009;"";"";"";"";"Rolando";"Favell";"";"Rolando";"$2a$10$vjGrD68hBVCk7ipeUG3/8OMOcUR2WUVGkMQZ0BV3eNjjjsAWzuxZu";"evelia.solis@torexgold.com";1;"";"2020-01-14 00:00:00";"2020-01-14 00:00:00";10;"";"3b6f7738-c8ff-4872-840b-818b4482bc6c";1
30010;"";"";"";"";"Russell";"Gibson";"";"Russell";"$2a$10$vjGrD68hBVCk7ipeUG3/8OMOcUR2WUVGkMQZ0BV3eNjjjsAWzuxZu";"arturo.magana@torexgold.com";1;"";"2020-01-14 00:00:00";"2020-01-14 00:00:00";10;"";"977cf23b-dfe6-4a8f-bb9f-c5651f6f1f56";1
30016;"";"";"";"";"Neil";"Brousseau";"";"Neil";"$2a$10$vjGrD68hBVCk7ipeUG3/8OMOcUR2WUVGkMQZ0BV3eNjjjsAWzuxZu";"iran.najera@torexgold.com";1;"";"2020-01-14 00:00:00";"2020-01-14 00:00:00";10;"";"288bf059-2e66-485c-923e-f9b4d58cf8f0";1
30018;"";"";"";"";"George";"Brousseau";"";"George";"$2a$10$vjGrD68hBVCk7ipeUG3/8OMOcUR2WUVGkMQZ0BV3eNjjjsAWzuxZu";"ramon.ibarra@torexgold.com";1;"";"2020-01-14 00:00:00";"2020-01-14 00:00:00";10;"";"b8241661-2976-4e99-9bb9-df09904fb4fb";1
30020;"";"";"";"";"Todd";"Manuel";"";"Todd";"$2a$10$vjGrD68hBVCk7ipeUG3/8OMOcUR2WUVGkMQZ0BV3eNjjjsAWzuxZu";"sergio.avila@torexgold.com";1;"";"2020-01-14 00:00:00";"2020-01-14 00:00:00";10;"";"8d92c3cc-2990-44bb-9bec-ac033cd2036a";1
30023;"";"";"";"";"Derek";"Martin";"";"Derek";"$2a$10$vjGrD68hBVCk7ipeUG3/8OMOcUR2WUVGkMQZ0BV3eNjjjsAWzuxZu";"juangaona@minetell.com";1;"";"2020-01-14 00:00:00";"2020-01-14 00:00:00";10;"";"58f17638-32db-4a09-96be-077ad439c794";1
30026;"";"";"";"";"Wade";"Allan";"";"Wade";"$2a$10$vjGrD68hBVCk7ipeUG3/8OMOcUR2WUVGkMQZ0BV3eNjjjsAWzuxZu";"manueltapia@minetell.com";1;"";"2020-01-14 00:00:00";"2020-01-14 00:00:00";10;"";"d36b2b3d-381e-4b0d-8c4c-140293bbb829";1
30028;"";"";"";"";"Darroll";"Jones";"";"Darroll";"$2a$10$vjGrD68hBVCk7ipeUG3/8OMOcUR2WUVGkMQZ0BV3eNjjjsAWzuxZu";"azaelgonzalez@minetell.com";1;"";"2020-01-14 00:00:00";"2020-01-14 00:00:00";10;"";"3d112651-6a44-4a04-a048-41bf9227e9e6";1
30033;"";"";"";"";"Michael";"Stuber";"";"Michael";"$2a$10$vjGrD68hBVCk7ipeUG3/8OMOcUR2WUVGkMQZ0BV3eNjjjsAWzuxZu";"ricardonava@minetell.com";1;"";"2020-01-14 00:00:00";"2020-01-14 00:00:00";10;"";"4acf09a4-d82a-40fb-a161-92933f3fabd8";1
30037;"";"";"";"";"Greg";"Melnychuk";"";"Greg";"$2a$10$vjGrD68hBVCk7ipeUG3/8OMOcUR2WUVGkMQZ0BV3eNjjjsAWzuxZu";"cristogaspar@minetell.com";1;"";"2020-01-14 00:00:00";"2020-01-14 00:00:00";10;"";"1b726f5c-b8cd-463c-a7e3-29c4d653a96b";1
30040;"";"";"";"";"Charles";"Broad";"";"Charles";"$2a$10$vjGrD68hBVCk7ipeUG3/8OMOcUR2WUVGkMQZ0BV3eNjjjsAWzuxZu";"armandoarellano@minetell.com";1;"";"2020-01-14 00:00:00";"2020-01-14 00:00:00";10;"";"46462b4f-ae97-414b-a825-1cbf3db23849";1
30041;"";"";"";"";"Phillip";"Law";"";"Phillip";"$2a$10$vjGrD68hBVCk7ipeUG3/8OMOcUR2WUVGkMQZ0BV3eNjjjsAWzuxZu";"sergio.perez@torexgold.com";1;"";"2020-01-14 00:00:00";"2020-01-14 00:00:00";10;"";"7e4e304f-ebbb-42f4-a594-38eec7d34513";1
30043;"";"";"";"";"Aaron";"Decock";"";"Aaron";"$2a$10$vjGrD68hBVCk7ipeUG3/8OMOcUR2WUVGkMQZ0BV3eNjjjsAWzuxZu";"guillermoortiz@minetell.com";1;"";"2020-01-14 00:00:00";"2020-01-14 00:00:00";10;"";"34a44bdb-1c72-453c-93ea-e8e38735097f";1
30044;"";"";"";"";"George";"Henderson";"";"George";"$2a$10$vjGrD68hBVCk7ipeUG3/8OMOcUR2WUVGkMQZ0BV3eNjjjsAWzuxZu";"paul.saenz@torexgold.com";1;"";"2020-01-14 00:00:00";"2020-01-14 00:00:00";10;"";"faf6bfd9-e856-4fb0-a8b8-17cadea48bdc";1
30046;"";"";"";"";"Robert";"Rhiness";"";"Robert";"$2a$10$vjGrD68hBVCk7ipeUG3/8OMOcUR2WUVGkMQZ0BV3eNjjjsAWzuxZu";"eduardomorales@minetell.com";1;"";"2020-01-14 00:00:00";"2020-01-14 00:00:00";10;"";"b69532c6-4da8-4d01-8fd6-4953a931c2eb";1
30055;"";"";"";"";"Shane";"Alec";"";"Shane";"$2a$10$vjGrD68hBVCk7ipeUG3/8OMOcUR2WUVGkMQZ0BV3eNjjjsAWzuxZu";"franciscodominguez@minetell.com";1;"";"2020-01-14 00:00:00";"2020-01-14 00:00:00";10;"";"dbb81b60-afaf-4930-bc52-b43fd4c02f7d";1
30056;"";"";"";"";"Juston";"Doherty";"";"Juston";"$2a$10$vjGrD68hBVCk7ipeUG3/8OMOcUR2WUVGkMQZ0BV3eNjjjsAWzuxZu";"christianadame@minetell.com";1;"";"2020-01-14 00:00:00";"2020-01-14 00:00:00";10;"";"a992e3df-3dae-4da5-af3f-389dc8d7a641";1
30057;"";"";"";"";"Bradley";"Dupuis";"";"Bradley";"$2a$10$vjGrD68hBVCk7ipeUG3/8OMOcUR2WUVGkMQZ0BV3eNjjjsAWzuxZu";"adriandominguez@minetell.com";1;"";"2020-01-14 00:00:00";"2020-01-14 00:00:00";10;"";"aab920f8-9e6b-43c4-8e43-5c5fe060eeb7";1
30058;"";"";"";"";"Tammy";"Foster";"";"Tammy";"$2a$10$vjGrD68hBVCk7ipeUG3/8OMOcUR2WUVGkMQZ0BV3eNjjjsAWzuxZu";"osvaldolopez@minetell.com";1;"";"2020-01-14 00:00:00";"2020-01-14 00:00:00";10;"";"584c9136-87ef-4dbc-81e3-d8c2fa80e0da";1
30060;"";"";"";"";"James";"Hesse";"";"James";"$2a$10$vjGrD68hBVCk7ipeUG3/8OMOcUR2WUVGkMQZ0BV3eNjjjsAWzuxZu";"marina.saldana@torexgold.com";1;"";"2020-01-14 00:00:00";"2020-01-14 00:00:00";10;"";"267a1fb2-0afe-45c9-8ad4-c441b19f2a10";1
30062;"";"";"";"";"Lyle";"Schnepf";"";"Lyle";"$2a$10$vjGrD68hBVCk7ipeUG3/8OMOcUR2WUVGkMQZ0BV3eNjjjsAWzuxZu";"jesus.moreno@torexgold.com";1;"";"2020-01-14 00:00:00";"2020-01-14 00:00:00";10;"";"24ce0d6a-2b05-46a2-9b3c-9da016840a56";1
30069;"";"";"";"";"Frank";"Munger";"";"Frank";"$2a$10$vjGrD68hBVCk7ipeUG3/8OMOcUR2WUVGkMQZ0BV3eNjjjsAWzuxZu";"emmanuel.jaimes@torexgold.com";1;"";"2020-01-14 00:00:00";"2020-01-14 00:00:00";10;"";"7b7a4955-2bd0-4ef7-98ad-d0fbc3ca8ddc";1
30071;"";"";"";"";"Cedric";"Miller";"";"Cedric";"$2a$10$vjGrD68hBVCk7ipeUG3/8OMOcUR2WUVGkMQZ0BV3eNjjjsAWzuxZu";"victor.penuelas@torexgold.com";1;"";"2020-01-14 00:00:00";"2020-01-14 00:00:00";10;"";"8e74d65b-4778-4643-9c83-bbfeeab130ac";1
30075;"";"";"";"";"Jason";"Beaulieu";"";"Jason";"$2a$10$vjGrD68hBVCk7ipeUG3/8OMOcUR2WUVGkMQZ0BV3eNjjjsAWzuxZu";"gustavo.ramses@torexgold.com";1;"";"2020-01-14 00:00:00";"2020-01-14 00:00:00";10;"";"c52b0de2-73c0-4993-b7b4-551455b5fd5d";1
30079;"";"";"";"";"David";"Fergus";"";"David";"$2a$10$vjGrD68hBVCk7ipeUG3/8OMOcUR2WUVGkMQZ0BV3eNjjjsAWzuxZu";"christian.lopez@torexgold.com";1;"";"2020-01-14 00:00:00";"2020-01-14 00:00:00";10;"";"98103472-b105-4503-9fb5-4873110d7b00";1
30080;"";"";"";"";"Darrel";"Ketlo";"";"Darrel";"$2a$10$vjGrD68hBVCk7ipeUG3/8OMOcUR2WUVGkMQZ0BV3eNjjjsAWzuxZu";"juanarteaga@minetell.com";1;"";"2020-01-14 00:00:00";"2020-01-14 00:00:00";10;"";"faaca6e1-f156-44d8-a2d1-5bb8c004b6f7";1
30086;"";"";"";"";"Derek";"Monk";"";"Derek";"$2a$10$vjGrD68hBVCk7ipeUG3/8OMOcUR2WUVGkMQZ0BV3eNjjjsAWzuxZu";"salvador.rendon@torexgold.com";1;"";"2020-01-14 00:00:00";"2020-01-14 00:00:00";10;"";"409d2e36-dc0a-43e4-987e-c36729c3586c";1
30087;"";"";"";"";"James";"Muise";"";"James";"$2a$10$vjGrD68hBVCk7ipeUG3/8OMOcUR2WUVGkMQZ0BV3eNjjjsAWzuxZu";"angelalba@minetell.com";1;"";"2020-01-14 00:00:00";"2020-01-14 00:00:00";10;"";"a2bd6ade-6a8b-4852-bfc4-aa6d70437279";1
30089;"";"";"";"";"Kelvin";"Sweet";"";"Kelvin";"$2a$10$vjGrD68hBVCk7ipeUG3/8OMOcUR2WUVGkMQZ0BV3eNjjjsAWzuxZu";"erick.romero@torexgold.com";1;"";"2020-01-14 00:00:00";"2020-01-14 00:00:00";10;"";"71bd2df7-5a04-4f36-94f7-1eb54aea4c6d";1
30090;"";"";"";"";"Allan";"Therrien";"";"Allan";"$2a$10$vjGrD68hBVCk7ipeUG3/8OMOcUR2WUVGkMQZ0BV3eNjjjsAWzuxZu";"otoniel.chamu@torexgold.com";1;"";"2020-01-14 00:00:00";"2020-01-14 00:00:00";10;"";"ade20cb3-549a-4bd2-bb4c-7d75e105fd70";1
30094;"";"";"";"";"Donnie";"Ketlo";"";"Donnie";"$2a$10$vjGrD68hBVCk7ipeUG3/8OMOcUR2WUVGkMQZ0BV3eNjjjsAWzuxZu";"raulvillarreal@minetell.com";1;"";"2020-01-14 00:00:00";"2020-01-14 00:00:00";10;"";"7b29c13b-1e91-4fab-b4ea-de9b9e075ef4";1
30098;"";"";"";"";"Dean";"Prince";"";"Dean";"$2a$10$vjGrD68hBVCk7ipeUG3/8OMOcUR2WUVGkMQZ0BV3eNjjjsAWzuxZu";"jose.arredondo@torexgold.com";1;"";"2020-01-14 00:00:00";"2020-01-14 00:00:00";10;"";"4f8fce29-da08-42dc-91ae-b2174d92f34b";1
30099;"";"";"";"";"James";"Saffel";"";"James";"$2a$10$vjGrD68hBVCk7ipeUG3/8OMOcUR2WUVGkMQZ0BV3eNjjjsAWzuxZu";"jonathan.barajas@torexgold.com";1;"";"2020-01-14 00:00:00";"2020-01-14 00:00:00";10;"";"cb889643-e3c5-454a-be80-e7bb9b80729a";1
30100;"";"";"";"";"Brian";"Schwab";"";"Brian";"$2a$10$vjGrD68hBVCk7ipeUG3/8OMOcUR2WUVGkMQZ0BV3eNjjjsAWzuxZu";"angelizgarcia@minetell.com";1;"";"2020-01-14 00:00:00";"2020-01-14 00:00:00";10;"";"fa1f254a-897d-4c48-8af4-a1d53ad5cc92";1
30105;"";"";"";"";"Ivan";"Swedak";"";"Ivan";"$2a$10$vjGrD68hBVCk7ipeUG3/8OMOcUR2WUVGkMQZ0BV3eNjjjsAWzuxZu";"guillermomunoz@minetell.com";1;"";"2020-01-14 00:00:00";"2020-01-14 00:00:00";10;"";"6746cb52-792b-4674-a343-1feffb734d0d";1
30106;"";"";"";"";"Lyle";"Annis";"";"Lyle";"$2a$10$vjGrD68hBVCk7ipeUG3/8OMOcUR2WUVGkMQZ0BV3eNjjjsAWzuxZu";"luis.sanchez@torexgold.com";1;"";"2020-01-14 00:00:00";"2020-01-14 00:00:00";10;"";"a5348d0e-7ad5-44e8-bec3-12e1b3f4ffaf";1
30107;"";"";"";"";"Dwayne";"Smith";"";"Dwayne";"$2a$10$vjGrD68hBVCk7ipeUG3/8OMOcUR2WUVGkMQZ0BV3eNjjjsAWzuxZu";"carlos.gonzalez@torexgold.com";1;"";"2020-01-14 00:00:00";"2020-01-14 00:00:00";10;"";"d9b91648-d146-4be8-a7a8-a70d7f87cd6c";1
30108;"";"";"";"";"Kyle";"Serle";"";"Kyle";"$2a$10$vjGrD68hBVCk7ipeUG3/8OMOcUR2WUVGkMQZ0BV3eNjjjsAWzuxZu";"antoniogarcia@minetell.com";1;"";"2020-01-14 00:00:00";"2020-01-14 00:00:00";10;"";"6cef92bc-9e2f-408b-a3b9-c2a11c9bb4e5";1
30110;"";"";"";"";"Mark";"Collins";"";"Mark";"$2a$10$vjGrD68hBVCk7ipeUG3/8OMOcUR2WUVGkMQZ0BV3eNjjjsAWzuxZu";"antonioolaiz@minetell.com";1;"";"2020-01-14 00:00:00";"2020-01-14 00:00:00";10;"";"53a0362f-ed2c-469a-ac3e-20286cd9ef5f";1
30114;"";"";"";"";"Colton";"Audit";"";"Colton";"$2a$10$vjGrD68hBVCk7ipeUG3/8OMOcUR2WUVGkMQZ0BV3eNjjjsAWzuxZu";"rutiliorodriguez@minetell.com";1;"";"2020-01-14 00:00:00";"2020-01-14 00:00:00";10;"";"f0270616-3be6-481b-a01d-b473d0f2b1f2";1
30115;"";"";"";"";"Chris Edward";"Werry";"";"Chris Edward";"$2a$10$vjGrD68hBVCk7ipeUG3/8OMOcUR2WUVGkMQZ0BV3eNjjjsAWzuxZu";"gonzalogarcia@minetell.com";1;"";"2020-01-14 00:00:00";"2020-01-14 00:00:00";10;"";"d316b49a-cf21-4272-a1f8-c19e93880105";1
30116;"";"";"";"";"Arthur";"Northcott";"";"Arthur";"$2a$10$vjGrD68hBVCk7ipeUG3/8OMOcUR2WUVGkMQZ0BV3eNjjjsAWzuxZu";"alanortiz@minetell.com";1;"";"2020-01-14 00:00:00";"2020-01-14 00:00:00";10;"";"519fa9ee-5d8b-4237-b23c-49b007afb1a7";1
30119;"";"";"";"";"Tylor";"Archambault";"";"Tylor";"$2a$10$vjGrD68hBVCk7ipeUG3/8OMOcUR2WUVGkMQZ0BV3eNjjjsAWzuxZu";"facundoflores@minetell.com";1;"";"2020-01-14 00:00:00";"2020-01-14 00:00:00";10;"";"ad57b36d-1fb9-43c6-95a9-624293cd2e04";1
30120;"";"";"";"";"Dean";"Holland";"";"Dean";"$2a$10$vjGrD68hBVCk7ipeUG3/8OMOcUR2WUVGkMQZ0BV3eNjjjsAWzuxZu";"manuelduran@minetell.com";1;"";"2020-01-14 00:00:00";"2020-01-14 00:00:00";10;"";"d0afb013-855e-45e1-b7ae-f22a594dd075";1
30124;"";"";"";"";"Justin";"Hatch";"";"Justin";"$2a$10$vjGrD68hBVCk7ipeUG3/8OMOcUR2WUVGkMQZ0BV3eNjjjsAWzuxZu";"cristofranco@minetell.com";1;"";"2020-01-14 00:00:00";"2020-01-14 00:00:00";10;"";"a989003e-f19d-47e7-ab1a-f41b0602b469";1
30126;"";"";"";"";"Jeromy";"Barton";"";"Jeromy";"$2a$10$vjGrD68hBVCk7ipeUG3/8OMOcUR2WUVGkMQZ0BV3eNjjjsAWzuxZu";"atheneadiazdeleonrendon@minetell.com";1;"";"2020-01-14 00:00:00";"2020-01-14 00:00:00";10;"";"6f04f853-b129-4ba9-b144-00ad57ff0275";1
30135;"";"";"";"";"Fabian";"Prince";"";"Fabian";"$2a$10$vjGrD68hBVCk7ipeUG3/8OMOcUR2WUVGkMQZ0BV3eNjjjsAWzuxZu";"eliseosalazar@minetell.com";1;"";"2020-01-14 00:00:00";"2020-01-14 00:00:00";10;"";"5282e8ec-1348-4e5b-bef6-ccba38a01da0";1
30137;"";"";"";"";"Edgar";"Archibald";"";"Edgar";"$2a$10$vjGrD68hBVCk7ipeUG3/8OMOcUR2WUVGkMQZ0BV3eNjjjsAWzuxZu";"noemartinez@minetell.com";1;"";"2020-01-14 00:00:00";"2020-01-14 00:00:00";10;"";"c0409e53-41d7-40af-b6ea-6be52d5acc5f";1
30142;"";"";"";"";"Jason";"Herzig";"";"Jason";"$2a$10$vjGrD68hBVCk7ipeUG3/8OMOcUR2WUVGkMQZ0BV3eNjjjsAWzuxZu";"reneguzman@minetell.com";1;"";"2020-01-14 00:00:00";"2020-01-14 00:00:00";10;"";"4a57daa2-943e-4f3e-9b4b-464d87ea6f36";1
30143;"";"";"";"";"David";"Windsor";"";"David";"$2a$10$vjGrD68hBVCk7ipeUG3/8OMOcUR2WUVGkMQZ0BV3eNjjjsAWzuxZu";"donacianoperalta@minetell.com";1;"";"2020-01-14 00:00:00";"2020-01-14 00:00:00";10;"";"530e7581-5b6c-4a21-a764-8f7fd6862b27";1
30144;"";"";"";"";"Trent";"Poulin";"";"Trent";"$2a$10$vjGrD68hBVCk7ipeUG3/8OMOcUR2WUVGkMQZ0BV3eNjjjsAWzuxZu";"danielesquivel@minetell.com";1;"";"2020-01-14 00:00:00";"2020-01-14 00:00:00";10;"";"8e9a92bf-fb73-4023-9669-31e060ff76c5";1
30145;"";"";"";"";"Malcolm";"Marshall";"";"Malcolm";"$2a$10$vjGrD68hBVCk7ipeUG3/8OMOcUR2WUVGkMQZ0BV3eNjjjsAWzuxZu";"ivanbenitez@minetell.com";1;"";"2020-01-14 00:00:00";"2020-01-14 00:00:00";10;"";"11115357-7f72-4136-aaf2-f25da1e5780e";1
30150;"";"";"";"";"Kenneth";"Schwab";"";"Kenneth";"$2a$10$vjGrD68hBVCk7ipeUG3/8OMOcUR2WUVGkMQZ0BV3eNjjjsAWzuxZu";"bernardinodiaz@minetell.com";1;"";"2020-01-14 00:00:00";"2020-01-14 00:00:00";10;"";"91fdf847-64b2-4399-bbb8-72ac28d27ba1";1
30151;"";"";"";"";"Klaus";"Schroeder";"";"Klaus";"$2a$10$vjGrD68hBVCk7ipeUG3/8OMOcUR2WUVGkMQZ0BV3eNjjjsAWzuxZu";"margaritomatias@minetell.com";1;"";"2020-01-14 00:00:00";"2020-01-14 00:00:00";10;"";"12336bd6-f6cd-4041-9a5d-ae773851ca08";1
30152;"";"";"";"";"David";"Taylor";"";"David";"$2a$10$vjGrD68hBVCk7ipeUG3/8OMOcUR2WUVGkMQZ0BV3eNjjjsAWzuxZu";"eduardocelaya@minetell.com";1;"";"2020-01-14 00:00:00";"2020-01-14 00:00:00";10;"";"326cdb61-00ba-4719-bf1e-261f4468bdcb";1
30153;"";"";"";"";"Gary";"Hall";"";"Gary";"$2a$10$vjGrD68hBVCk7ipeUG3/8OMOcUR2WUVGkMQZ0BV3eNjjjsAWzuxZu";"edgarflores@minetell.com";1;"";"2020-01-14 00:00:00";"2020-01-14 00:00:00";10;"";"2be24f11-ccec-46a9-b425-befe2269fcba";1
30155;"";"";"";"";"Dustin";"Ethier";"";"Dustin";"$2a$10$vjGrD68hBVCk7ipeUG3/8OMOcUR2WUVGkMQZ0BV3eNjjjsAWzuxZu";"jesuscalderon@minetell.com";1;"";"2020-01-14 00:00:00";"2020-01-14 00:00:00";10;"";"b148b757-d7dc-416d-91ae-c639d3e54656";1
30156;"";"";"";"";"Ken";"Senner";"";"Ken";"$2a$10$vjGrD68hBVCk7ipeUG3/8OMOcUR2WUVGkMQZ0BV3eNjjjsAWzuxZu";"emmanuelhernandez@minetell.com";1;"";"2020-01-14 00:00:00";"2020-01-14 00:00:00";10;"";"8af5a314-6c2a-48c4-92fd-e143c585c136";1
30158;"";"";"";"";"Branden";"Bartlett";"";"Branden";"$2a$10$vjGrD68hBVCk7ipeUG3/8OMOcUR2WUVGkMQZ0BV3eNjjjsAWzuxZu";"alejandronoriega@minetell.com";1;"";"2020-01-14 00:00:00";"2020-01-14 00:00:00";10;"";"7a0e35ba-a890-4118-b990-41ac15d5c583";1
30159;"";"";"";"";"Patrick";"Gallagher";"";"Patrick";"$2a$10$vjGrD68hBVCk7ipeUG3/8OMOcUR2WUVGkMQZ0BV3eNjjjsAWzuxZu";"miguelleyva@minetell.com";1;"";"2020-01-14 00:00:00";"2020-01-14 00:00:00";10;"";"40a8c4a3-b1e0-4e2b-a6ea-b641b4905ef1";1
30160;"";"";"";"";"Craig";"Akeroyd";"";"Craig";"$2a$10$vjGrD68hBVCk7ipeUG3/8OMOcUR2WUVGkMQZ0BV3eNjjjsAWzuxZu";"omarmiranda@minetell.com";1;"";"2020-01-14 00:00:00";"2020-01-14 00:00:00";10;"";"e096e026-4cf3-489e-ad90-71ce46193c79";1
30164;"";"";"";"";"Tyler";"Thomsen";"";"Tyler";"$2a$10$vjGrD68hBVCk7ipeUG3/8OMOcUR2WUVGkMQZ0BV3eNjjjsAWzuxZu";"erickpalomino@minetell.com";1;"";"2020-01-14 00:00:00";"2020-01-14 00:00:00";10;"";"b3347fa6-2001-4590-8977-a5f537b6d154";1
30165;"";"";"";"";"Marvin";"Alfred";"";"Marvin";"$2a$10$vjGrD68hBVCk7ipeUG3/8OMOcUR2WUVGkMQZ0BV3eNjjjsAWzuxZu";"carlosdominguez@minetell.com";1;"";"2020-01-14 00:00:00";"2020-01-14 00:00:00";10;"";"f8ca52fd-c440-4415-aa0c-07bd86ff1485";1
30166;"";"";"";"";"Tyler";"Boyle";"";"Tyler";"$2a$10$vjGrD68hBVCk7ipeUG3/8OMOcUR2WUVGkMQZ0BV3eNjjjsAWzuxZu";"cristianaguilar@minetell.com";1;"";"2020-01-14 00:00:00";"2020-01-14 00:00:00";10;"";"80052f71-264b-4b1d-8bdd-0a8b3d35324f";1
30171;"";"";"";"";"Jason";"Barlow";"";"Jason";"$2a$10$vjGrD68hBVCk7ipeUG3/8OMOcUR2WUVGkMQZ0BV3eNjjjsAWzuxZu";"robertoduran@minetell.com";1;"";"2020-01-14 00:00:00";"2020-01-14 00:00:00";10;"";"cdf5044e-ddfb-43c7-9a2a-7061495109aa";1
30175;"";"";"";"";"Trevor";"Brown";"";"Trevor";"$2a$10$vjGrD68hBVCk7ipeUG3/8OMOcUR2WUVGkMQZ0BV3eNjjjsAWzuxZu";"vicentereyes@minetell.com";1;"";"2020-01-14 00:00:00";"2020-01-14 00:00:00";10;"";"00f3e0bf-9378-4339-a3f1-bd6b32c3b3da";1
30178;"";"";"";"";"Logan";"Ethier";"";"Logan";"$2a$10$vjGrD68hBVCk7ipeUG3/8OMOcUR2WUVGkMQZ0BV3eNjjjsAWzuxZu";"josevalle@minetell.com";1;"";"2020-01-14 00:00:00";"2020-01-14 00:00:00";10;"";"c3d33c30-4031-435f-9165-5c08b7591d03";1
30182;"";"";"";"";"Edward";"Poulin";"";"Edward";"$2a$10$vjGrD68hBVCk7ipeUG3/8OMOcUR2WUVGkMQZ0BV3eNjjjsAWzuxZu";"mauricioarballo@minetell.com";1;"";"2020-01-14 00:00:00";"2020-01-14 00:00:00";10;"";"07bc1e74-42c5-4031-a419-8bb1a51951cf";1
30183;"";"";"";"";"Norm";"Sawatzky";"";"Norm";"$2a$10$vjGrD68hBVCk7ipeUG3/8OMOcUR2WUVGkMQZ0BV3eNjjjsAWzuxZu";"yosimartorres@minetell.com";1;"";"2020-01-14 00:00:00";"2020-01-14 00:00:00";10;"";"5566899a-94f6-458b-9b47-e35d0324b92c";1
30185;"";"";"";"";"Kevin";"Walsh";"";"Kevin";"$2a$10$vjGrD68hBVCk7ipeUG3/8OMOcUR2WUVGkMQZ0BV3eNjjjsAWzuxZu";"arturocontreras@minetell.com";1;"";"2020-01-14 00:00:00";"2020-01-14 00:00:00";10;"";"6d0d8708-efd2-4a4c-94b5-a8b14c788175";1
30186;"";"";"";"";"Scott";"McQueen";"";"Scott";"$2a$10$vjGrD68hBVCk7ipeUG3/8OMOcUR2WUVGkMQZ0BV3eNjjjsAWzuxZu";"sandraisidro@minetell.com";1;"";"2020-01-14 00:00:00";"2020-01-14 00:00:00";10;"";"c5bd975e-bfa0-4e86-b5ca-9d88d989309b";1
30194;"";"";"";"";"Cecil";"Larocke";"";"Cecil";"$2a$10$vjGrD68hBVCk7ipeUG3/8OMOcUR2WUVGkMQZ0BV3eNjjjsAWzuxZu";"carlosflores@minetell.com";1;"";"2020-01-14 00:00:00";"2020-01-14 00:00:00";10;"";"9301003b-14c4-461d-b047-a50e82d20bee";1
30195;"";"";"";"";"Miles";"Trenaman";"";"Miles";"$2a$10$vjGrD68hBVCk7ipeUG3/8OMOcUR2WUVGkMQZ0BV3eNjjjsAWzuxZu";"franciscomachado@minetell.com";1;"";"2020-01-14 00:00:00";"2020-01-14 00:00:00";10;"";"e0fde928-a87a-4122-95bf-7cb9aad83646";1
30196;"";"";"";"";"Corey";"Dougall";"";"Corey";"$2a$10$vjGrD68hBVCk7ipeUG3/8OMOcUR2WUVGkMQZ0BV3eNjjjsAWzuxZu";"moisesvilla@minetell.com";1;"";"2020-01-14 00:00:00";"2020-01-14 00:00:00";10;"";"4dec8f0e-c56c-4a88-bc52-8abf460ca708";1
30197;"";"";"";"";"Jean-Pierre";"Lambert";"";"Jean-Pierre";"$2a$10$vjGrD68hBVCk7ipeUG3/8OMOcUR2WUVGkMQZ0BV3eNjjjsAWzuxZu";"alejandromorales@minetell.com";1;"";"2020-01-14 00:00:00";"2020-01-14 00:00:00";10;"";"ea89aa07-a809-4200-94cb-beb8586924e2";1
30202;"";"";"";"";"James";"Peterson";"";"James";"$2a$10$vjGrD68hBVCk7ipeUG3/8OMOcUR2WUVGkMQZ0BV3eNjjjsAWzuxZu";"alexiscabral@minetell.com";1;"";"2020-01-14 00:00:00";"2020-01-14 00:00:00";10;"";"5c74b99b-820d-4014-9c67-536b006c0adf";1
30207;"";"";"";"";"Charles";"Cooper";"";"Charles";"$2a$10$vjGrD68hBVCk7ipeUG3/8OMOcUR2WUVGkMQZ0BV3eNjjjsAWzuxZu";"eduardoperalta@minetell.com";1;"";"2020-01-14 00:00:00";"2020-01-14 00:00:00";10;"";"d329089b-6003-4157-8537-fdd31dd8ad59";1
30208;"";"";"";"";"Gary";"Uchacz";"";"Gary";"$2a$10$vjGrD68hBVCk7ipeUG3/8OMOcUR2WUVGkMQZ0BV3eNjjjsAWzuxZu";"carlosmendoza@minetell.com";1;"";"2020-01-14 00:00:00";"2020-01-14 00:00:00";10;"";"cd7baff0-14fe-4df0-90bd-c484d52cc223";1
30209;"";"";"";"";"Cory";"Tisdale";"";"Cory";"$2a$10$vjGrD68hBVCk7ipeUG3/8OMOcUR2WUVGkMQZ0BV3eNjjjsAWzuxZu";"ericklopez@minetell.com";1;"";"2020-01-14 00:00:00";"2020-01-14 00:00:00";10;"";"788256da-c347-4bb1-af80-aaf05caad1ef";1
30210;"";"";"";"";"Clarence";"John";"";"Clarence";"$2a$10$vjGrD68hBVCk7ipeUG3/8OMOcUR2WUVGkMQZ0BV3eNjjjsAWzuxZu";"jesusrodriguez@minetell.com";1;"";"2020-01-14 00:00:00";"2020-01-14 00:00:00";10;"";"2964aa89-ba6f-4293-9aae-340f096bafe3";1
30211;"";"";"";"";"Kristopher";"Abbott";"";"Kristopher";"$2a$10$vjGrD68hBVCk7ipeUG3/8OMOcUR2WUVGkMQZ0BV3eNjjjsAWzuxZu";"luiscontreras@minetell.com";1;"";"2020-01-14 00:00:00";"2020-01-14 00:00:00";10;"";"0cc293b5-43bd-4e90-806d-400c7e389c3e";1
30213;"";"";"";"";"Corey";"Borne";"";"Corey";"$2a$10$vjGrD68hBVCk7ipeUG3/8OMOcUR2WUVGkMQZ0BV3eNjjjsAWzuxZu";"emmanuelcastro@minetell.com";1;"";"2020-01-14 00:00:00";"2020-01-14 00:00:00";10;"";"96200a63-8f8f-489d-964d-48b77490125f";1
30214;"";"";"";"";"Bradley";"Cockwill";"";"Bradley";"$2a$10$vjGrD68hBVCk7ipeUG3/8OMOcUR2WUVGkMQZ0BV3eNjjjsAWzuxZu";"simonavalos@minetell.com";1;"";"2020-01-14 00:00:00";"2020-01-14 00:00:00";10;"";"812a9bac-b947-499f-8903-59edcae41936";1
30215;"";"";"";"";"Daniel";"Heisler";"";"Daniel";"$2a$10$vjGrD68hBVCk7ipeUG3/8OMOcUR2WUVGkMQZ0BV3eNjjjsAWzuxZu";"violetaanaya@minetell.com";1;"";"2020-01-14 00:00:00";"2020-01-14 00:00:00";10;"";"030aebf1-2aed-4dd6-a527-e9025b1aaf49";1
30218;"";"";"";"";"Troy";"Scott";"";"Troy";"$2a$10$vjGrD68hBVCk7ipeUG3/8OMOcUR2WUVGkMQZ0BV3eNjjjsAWzuxZu";"reynaldoortiz@minetell.com";1;"";"2020-01-14 00:00:00";"2020-01-14 00:00:00";10;"";"ba69bf89-437c-410b-bb8f-40e3d698e8a4";1
30223;"";"";"";"";"Martin";"Wagner";"";"Martin";"$2a$10$vjGrD68hBVCk7ipeUG3/8OMOcUR2WUVGkMQZ0BV3eNjjjsAWzuxZu";"angelanzurez@minetell.com";1;"";"2020-01-14 00:00:00";"2020-01-14 00:00:00";10;"";"bd9f9b74-ebbf-4858-a381-cf645765937b";1
30226;"";"";"";"";"Melvin";"Campbell";"";"Melvin";"$2a$10$vjGrD68hBVCk7ipeUG3/8OMOcUR2WUVGkMQZ0BV3eNjjjsAWzuxZu";"yafreitzramirez@minetell.com";1;"";"2020-01-14 00:00:00";"2020-01-14 00:00:00";10;"";"3563418e-4244-47f3-b342-63c1042a5762";1
30227;"";"";"";"";"Serge";"Cyr";"";"Serge";"$2a$10$vjGrD68hBVCk7ipeUG3/8OMOcUR2WUVGkMQZ0BV3eNjjjsAWzuxZu";"jesusmejia@minetell.com";1;"";"2020-01-14 00:00:00";"2020-01-14 00:00:00";10;"";"74c135d6-d29a-40a6-887a-a7cc3895b677";1
30228;"";"";"";"";"Gordon";"Eberding";"";"Gordon";"$2a$10$vjGrD68hBVCk7ipeUG3/8OMOcUR2WUVGkMQZ0BV3eNjjjsAWzuxZu";"ricardomontoya@minetell.com";1;"";"2020-01-14 00:00:00";"2020-01-14 00:00:00";10;"";"533df481-d27d-4311-9d7f-d1950648f2f0";1
30229;"";"";"";"";"Joseph";"Eisert";"";"Joseph";"$2a$10$vjGrD68hBVCk7ipeUG3/8OMOcUR2WUVGkMQZ0BV3eNjjjsAWzuxZu";"guillermorodriguez@minetell.com";1;"";"2020-01-14 00:00:00";"2020-01-14 00:00:00";10;"";"39c930b7-3c4d-41d3-bf53-6142b027bf0d";1
30231;"";"";"";"";"Alyssa";"Clayton";"";"Alyssa";"$2a$10$vjGrD68hBVCk7ipeUG3/8OMOcUR2WUVGkMQZ0BV3eNjjjsAWzuxZu";"victormujica@minetell.com";1;"";"2020-01-14 00:00:00";"2020-01-14 00:00:00";10;"";"d9d7e7a2-1fbe-4f08-9b88-63c8e1cc21fb";1
30232;"";"";"";"";"Daphne";"Hall";"";"Daphne";"$2a$10$vjGrD68hBVCk7ipeUG3/8OMOcUR2WUVGkMQZ0BV3eNjjjsAWzuxZu";"carlosperez@minetell.com";1;"";"2020-01-14 00:00:00";"2020-01-14 00:00:00";10;"";"4f74ec23-d781-4132-9539-13e0f27666d0";1
30233;"";"";"";"";"Dennis";"Llarena";"";"Dennis";"$2a$10$vjGrD68hBVCk7ipeUG3/8OMOcUR2WUVGkMQZ0BV3eNjjjsAWzuxZu";"cruzsantos@minetell.com";1;"";"2020-01-14 00:00:00";"2020-01-14 00:00:00";10;"";"cebaf796-8cad-4670-bf06-e7b6affad19f";1
30236;"";"";"";"";"Richard";"Veilleux";"";"Richard";"$2a$10$vjGrD68hBVCk7ipeUG3/8OMOcUR2WUVGkMQZ0BV3eNjjjsAWzuxZu";"victorramirez@minetell.com";1;"";"2020-01-14 00:00:00";"2020-01-14 00:00:00";10;"";"7466398f-2ea7-4c35-938d-923730362d70";1
30240;"";"";"";"";"Kevin";"Muir";"";"Kevin";"$2a$10$vjGrD68hBVCk7ipeUG3/8OMOcUR2WUVGkMQZ0BV3eNjjjsAWzuxZu";"miguelpimentel@minetell.com";1;"";"2020-01-14 00:00:00";"2020-01-14 00:00:00";10;"";"5a598f9c-508a-40b9-a9be-f66aee11b35c";1
30241;"";"";"";"";"Jason";"Robinson";"";"Jason";"$2a$10$vjGrD68hBVCk7ipeUG3/8OMOcUR2WUVGkMQZ0BV3eNjjjsAWzuxZu";"fatimacastrejon@minetell.com";1;"";"2020-01-14 00:00:00";"2020-01-14 00:00:00";10;"";"376d5662-a90f-49dd-9449-f0a8f5cd3c11";1
30243;"";"";"";"";"Cory";"Toews";"";"Cory";"$2a$10$vjGrD68hBVCk7ipeUG3/8OMOcUR2WUVGkMQZ0BV3eNjjjsAWzuxZu";"dickaraya@minetell.com";1;"";"2020-01-14 00:00:00";"2020-01-14 00:00:00";10;"";"74952d16-7d2c-4293-a0c6-84adbe828fd6";1
30244;"";"";"";"";"Jeff";"Coombs";"";"Jeff";"$2a$10$vjGrD68hBVCk7ipeUG3/8OMOcUR2WUVGkMQZ0BV3eNjjjsAWzuxZu";"martinfigueroa@minetell.com";1;"";"2020-01-14 00:00:00";"2020-01-14 00:00:00";10;"";"72c41909-13c5-4531-84a2-00dea91c76f9";1
30245;"";"";"";"";"Ryan";"Coulter";"";"Ryan";"$2a$10$vjGrD68hBVCk7ipeUG3/8OMOcUR2WUVGkMQZ0BV3eNjjjsAWzuxZu";"miguelmartinez@minetell.com";1;"";"2020-01-14 00:00:00";"2020-01-14 00:00:00";10;"";"be09f9fd-a4e4-4571-a7f2-83c3c73877dd";1
30246;"";"";"";"";"Earl";"Currie";"";"Earl";"$2a$10$vjGrD68hBVCk7ipeUG3/8OMOcUR2WUVGkMQZ0BV3eNjjjsAWzuxZu";"juannavor@minetell.com";1;"";"2020-01-14 00:00:00";"2020-01-14 00:00:00";10;"";"9a52abae-c7fc-4c2f-8eab-da899eb6c3b3";1
30247;"";"";"";"";"Wade";"Jurke";"";"Wade";"$2a$10$vjGrD68hBVCk7ipeUG3/8OMOcUR2WUVGkMQZ0BV3eNjjjsAWzuxZu";"anacabrera@minetell.com";1;"";"2020-01-14 00:00:00";"2020-01-14 00:00:00";10;"";"c483059a-c5ee-44f9-810d-cd2be482130b";1
30249;"";"";"";"";"Jeremy";"Senner";"";"Jeremy";"$2a$10$vjGrD68hBVCk7ipeUG3/8OMOcUR2WUVGkMQZ0BV3eNjjjsAWzuxZu";"javiertranquilino@minetell.com";1;"";"2020-01-14 00:00:00";"2020-01-14 00:00:00";10;"";"aeb4177c-fe3f-44a0-a374-1eff765e207b";1
30250;"";"";"";"";"Barry";"Smook";"";"Barry";"$2a$10$vjGrD68hBVCk7ipeUG3/8OMOcUR2WUVGkMQZ0BV3eNjjjsAWzuxZu";"maximoarmenta@minetell.com";1;"";"2020-01-14 00:00:00";"2020-01-14 00:00:00";10;"";"2011d42f-6f11-4dfb-b002-ee4a64655ac7";1
30251;"Health Screener";"Group C19 Screening";"";"";"Test";"User";"";"testuser";"$2a$10$vjGrD68hBVCk7ipeUG3/8OMOcUR2WUVGkMQZ0BV3eNjjjsAWzuxZu";"testuser@minetell.com";1;"";"2020-01-14 00:00:00";"2020-04-09 14:47:12";10;"";"aeb4177c-fe3f-44a0-a374-1eff765e207b";1
30254;"";"";"";"";"Jonathon";"McCormick";"";"Jonathon";"$2a$10$vjGrD68hBVCk7ipeUG3/8OMOcUR2WUVGkMQZ0BV3eNjjjsAWzuxZu";"marcosiaruqui@minetell.com";1;"";"2020-01-14 00:00:00";"2020-01-14 00:00:00";10;"";"6e510c0f-a402-4728-b9ca-4cc8f58b398a";1
30256;"";"";"";"";"James";"Doucette";"";"James";"$2a$10$vjGrD68hBVCk7ipeUG3/8OMOcUR2WUVGkMQZ0BV3eNjjjsAWzuxZu";"ivanbuenaventura@minetell.com";1;"";"2020-01-14 00:00:00";"2020-01-14 00:00:00";10;"";"14c7d18b-31c3-4bfd-89af-fde1678ec577";1
30258;"";"";"";"";"Troy";"Morais";"";"Troy";"$2a$10$vjGrD68hBVCk7ipeUG3/8OMOcUR2WUVGkMQZ0BV3eNjjjsAWzuxZu";"alejandrobello@minetell.com";1;"";"2020-01-14 00:00:00";"2020-01-14 00:00:00";10;"";"064ed4fc-ddf7-432b-aa7e-44579ed17f99";1
30261;"";"";"";"";"Sheldon";"West";"";"Sheldon";"$2a$10$vjGrD68hBVCk7ipeUG3/8OMOcUR2WUVGkMQZ0BV3eNjjjsAWzuxZu";"roxanareyes@minetell.com";1;"";"2020-01-14 00:00:00";"2020-01-14 00:00:00";10;"";"09eb4da5-8eb3-4754-9fd5-e7598fa66033";1
30264;"";"";"";"";"Leslie";"Harper";"";"Leslie";"$2a$10$vjGrD68hBVCk7ipeUG3/8OMOcUR2WUVGkMQZ0BV3eNjjjsAWzuxZu";"ireneserna@minetell.com";1;"";"2020-01-14 00:00:00";"2020-01-14 00:00:00";10;"";"2bd28a49-7040-407b-920b-eb94298fb58f";1
30266;"";"";"";"";"Casimir";"Browne";"";"Casimir";"$2a$10$vjGrD68hBVCk7ipeUG3/8OMOcUR2WUVGkMQZ0BV3eNjjjsAWzuxZu";"alejandrobravo@minetell.com";1;"";"2020-01-14 00:00:00";"2020-01-14 00:00:00";10;"";"393f135f-3e62-4c0b-a25d-95194949d4a9";1
30268;"";"";"";"";"Travis";"Goldsmith";"";"Travis";"$2a$10$vjGrD68hBVCk7ipeUG3/8OMOcUR2WUVGkMQZ0BV3eNjjjsAWzuxZu";"alanhernandez@minetell.com";1;"";"2020-01-14 00:00:00";"2020-01-14 00:00:00";10;"";"17105d29-ee54-46c8-8b5e-2b89e4db7265";1
30273;"";"";"";"";"Michael";"Amyot";"";"Michael";"$2a$10$vjGrD68hBVCk7ipeUG3/8OMOcUR2WUVGkMQZ0BV3eNjjjsAWzuxZu";"dianagonzalez@minetell.com";1;"";"2020-01-14 00:00:00";"2020-01-14 00:00:00";10;"";"f06f79a5-5a8a-43f8-be7a-ae8a46432606";1
30278;"";"";"";"";"Owen";"Schulmeister";"";"Owen";"$2a$10$vjGrD68hBVCk7ipeUG3/8OMOcUR2WUVGkMQZ0BV3eNjjjsAWzuxZu";"erikaestrada@minetell.com";1;"";"2020-01-14 00:00:00";"2020-01-14 00:00:00";10;"";"11b244b2-55c6-4f62-b501-30106390ee64";1
30281;"";"";"";"";"Terrance";"Kleinsteuber";"";"Terrance";"$2a$10$vjGrD68hBVCk7ipeUG3/8OMOcUR2WUVGkMQZ0BV3eNjjjsAWzuxZu";"josepreciado@minetell.com";1;"";"2020-01-14 00:00:00";"2020-01-14 00:00:00";10;"";"52b7db2b-3872-4e42-8190-a382b627c7d0";1
30283;"";"";"";"";"Jesse";"Watt";"";"Jesse";"$2a$10$vjGrD68hBVCk7ipeUG3/8OMOcUR2WUVGkMQZ0BV3eNjjjsAWzuxZu";"josesegoviano@minetell.com";1;"";"2020-01-14 00:00:00";"2020-01-14 00:00:00";10;"";"2e48f7a1-d1df-43b4-af28-2f8eff86d2ce";1
30284;"";"";"";"";"Kinsley";"Coates";"";"Kinsley";"$2a$10$vjGrD68hBVCk7ipeUG3/8OMOcUR2WUVGkMQZ0BV3eNjjjsAWzuxZu";"juliocampos@minetell.com";1;"";"2020-01-14 00:00:00";"2020-01-14 00:00:00";10;"";"5ffe58de-9700-4af8-8452-8ac8b77b27e9";1
30285;"";"";"";"";"James";"Harris";"";"James";"$2a$10$vjGrD68hBVCk7ipeUG3/8OMOcUR2WUVGkMQZ0BV3eNjjjsAWzuxZu";"juanaguero@minetell.com";1;"";"2020-01-14 00:00:00";"2020-01-14 00:00:00";10;"";"41e944fc-2931-41ce-90de-48f19625d4c0";1
30286;"";"";"";"";"Richard";"Forshaw";"";"Richard";"$2a$10$vjGrD68hBVCk7ipeUG3/8OMOcUR2WUVGkMQZ0BV3eNjjjsAWzuxZu";"pedrovillalobos@minetell.com";1;"";"2020-01-14 00:00:00";"2020-01-14 00:00:00";10;"";"118480e8-a4df-4921-9bf1-2b2823811331";1
30287;"";"";"";"";"Shayne";"Deglow";"";"Shayne";"$2a$10$vjGrD68hBVCk7ipeUG3/8OMOcUR2WUVGkMQZ0BV3eNjjjsAWzuxZu";"ramonsalcido@minetell.com";1;"";"2020-01-14 00:00:00";"2020-01-14 00:00:00";10;"";"a968a53f-2421-45eb-a75c-5ffcf2408200";1
30290;"";"";"";"";"Claude";"Gauthier";"";"Claude";"$2a$10$vjGrD68hBVCk7ipeUG3/8OMOcUR2WUVGkMQZ0BV3eNjjjsAWzuxZu";"neftalinova@minetell.com";1;"";"2020-01-14 00:00:00";"2020-01-14 00:00:00";10;"";"a354737c-8821-4267-92d9-6a5718c29ba8";1
30291;"";"";"";"";"Robert";"Hiatt";"";"Robert";"$2a$10$vjGrD68hBVCk7ipeUG3/8OMOcUR2WUVGkMQZ0BV3eNjjjsAWzuxZu";"juanbriseno@minetell.com";1;"";"2020-01-14 00:00:00";"2020-01-14 00:00:00";10;"";"8bd39e7f-2444-464f-9959-7be01ad99e66";1
30292;"";"";"";"";"Dale";"Hornett";"";"Dale";"$2a$10$vjGrD68hBVCk7ipeUG3/8OMOcUR2WUVGkMQZ0BV3eNjjjsAWzuxZu";"ludovicorendon@minetell.com";1;"";"2020-01-14 00:00:00";"2020-01-14 00:00:00";10;"";"07172abd-f5e2-4b43-9607-277b6feeeabe";1
30295;"";"";"";"";"Gerald";"Harris";"";"Gerald";"$2a$10$vjGrD68hBVCk7ipeUG3/8OMOcUR2WUVGkMQZ0BV3eNjjjsAWzuxZu";"manuelmaresochoa@minetell.com";1;"";"2020-01-14 00:00:00";"2020-01-14 00:00:00";10;"";"9a8989c9-85d2-4efd-8864-e63bc70aa3d8";1
30296;"";"";"";"";"Richard";"Kammerer";"";"Richard";"$2a$10$vjGrD68hBVCk7ipeUG3/8OMOcUR2WUVGkMQZ0BV3eNjjjsAWzuxZu";"roxanazatarain@minetell.com";1;"";"2020-01-14 00:00:00";"2020-01-14 00:00:00";10;"";"6df75b2d-dadd-417a-bdee-d182a36d9008";1
30297;"";"";"";"";"Justin";"Gagnon";"";"Justin";"$2a$10$vjGrD68hBVCk7ipeUG3/8OMOcUR2WUVGkMQZ0BV3eNjjjsAWzuxZu";"paolaguevara@minetell.com";1;"";"2020-01-14 00:00:00";"2020-01-14 00:00:00";10;"";"8d7c3143-7350-49f0-bb5a-72919fd5d658";1
30302;"";"";"";"";"Logan";"Moser";"";"Logan";"$2a$10$vjGrD68hBVCk7ipeUG3/8OMOcUR2WUVGkMQZ0BV3eNjjjsAWzuxZu";"oscarteran@minetell.com";1;"";"2020-01-14 00:00:00";"2020-01-14 00:00:00";10;"";"95eb7484-9921-49df-9afb-402fb4a2582a";1
30305;"";"";"";"";"David";"Eppes";"";"David";"$2a$10$vjGrD68hBVCk7ipeUG3/8OMOcUR2WUVGkMQZ0BV3eNjjjsAWzuxZu";"marcomartinez@minetell.com";1;"";"2020-01-14 00:00:00";"2020-01-14 00:00:00";10;"";"c619ad03-ecb8-413d-8bef-5e269284aefa";1
30308;"";"";"";"";"Bruce";"Moroz";"";"Bruce";"$2a$10$vjGrD68hBVCk7ipeUG3/8OMOcUR2WUVGkMQZ0BV3eNjjjsAWzuxZu";"efrainhernandez@minetell.com";1;"";"2020-01-14 00:00:00";"2020-01-14 00:00:00";10;"";"1edf5ce6-bae9-4d5a-9081-ffa5e3cef95f";1
30309;"";"";"";"";"Kevin";"Olson";"";"Kevin";"$2a$10$vjGrD68hBVCk7ipeUG3/8OMOcUR2WUVGkMQZ0BV3eNjjjsAWzuxZu";"jesusmarin@minetell.com";1;"";"2020-01-14 00:00:00";"2020-01-14 00:00:00";10;"";"e0380692-dad8-40f7-b7d5-35189a08e276";1
30313;"";"";"";"";"Brandon";"Serwatkewich";"";"Brandon";"$2a$10$vjGrD68hBVCk7ipeUG3/8OMOcUR2WUVGkMQZ0BV3eNjjjsAWzuxZu";"arelirodriguez@minetell.com";1;"";"2020-01-14 00:00:00";"2020-01-14 00:00:00";10;"";"6f4f4e31-33a0-40d5-adf8-d636962a3799";1
30314;"";"";"";"";"Adam";"Bailey";"";"Adam";"$2a$10$vjGrD68hBVCk7ipeUG3/8OMOcUR2WUVGkMQZ0BV3eNjjjsAWzuxZu";"sergiotrujillo@minetell.com";1;"";"2020-01-14 00:00:00";"2020-01-14 00:00:00";10;"";"9770d1b0-c333-46d8-bfe8-08f148d71c88";1
30315;"";"";"";"";"Brandon";"Boffa";"";"Brandon";"$2a$10$vjGrD68hBVCk7ipeUG3/8OMOcUR2WUVGkMQZ0BV3eNjjjsAWzuxZu";"gabrielsalgado@minetell.com";1;"";"2020-01-14 00:00:00";"2020-01-14 00:00:00";10;"";"71b7e1cc-b7b4-4aa5-a998-2014dc7634e7";1
30316;"";"";"";"";"Wayde";"Decooman";"";"Wayde";"$2a$10$vjGrD68hBVCk7ipeUG3/8OMOcUR2WUVGkMQZ0BV3eNjjjsAWzuxZu";"albertovazquez@minetell.com";1;"";"2020-01-14 00:00:00";"2020-01-14 00:00:00";10;"";"2ee8c3a8-b452-4610-a68f-c0b336db1538";1
30317;"";"";"";"";"Lyle";"Litke";"";"Lyle";"$2a$10$vjGrD68hBVCk7ipeUG3/8OMOcUR2WUVGkMQZ0BV3eNjjjsAWzuxZu";"ismaelleyva@minetell.com";1;"";"2020-01-14 00:00:00";"2020-01-14 00:00:00";10;"";"05bd05f3-141f-47de-a5f9-c40c5484391a";1
30320;"";"";"";"";"Geno";"Zavaglia";"";"Geno";"$2a$10$vjGrD68hBVCk7ipeUG3/8OMOcUR2WUVGkMQZ0BV3eNjjjsAWzuxZu";"elverperalta@minetell.com";1;"";"2020-01-14 00:00:00";"2020-01-14 00:00:00";10;"";"fc32e298-ffb5-43f4-a97a-c74efa7ac607";1
30326;"";"";"";"";"Jacobes";"Kroesen";"";"Jacobes";"$2a$10$vjGrD68hBVCk7ipeUG3/8OMOcUR2WUVGkMQZ0BV3eNjjjsAWzuxZu";"gerardosolis@minetell.com";1;"";"2020-01-14 00:00:00";"2020-01-14 00:00:00";10;"";"2b2db8dc-512c-44eb-83df-507a479572b0";1
30334;"";"";"";"";"Aroel";"Pacaide";"";"Aroel";"$2a$10$vjGrD68hBVCk7ipeUG3/8OMOcUR2WUVGkMQZ0BV3eNjjjsAWzuxZu";"jaimelanda@minetell.com";1;"";"2020-01-14 00:00:00";"2020-01-14 00:00:00";10;"";"e7dc9f2f-6035-4334-bd57-a50146f3f07c";1
30335;"";"";"";"";"Jason";"Skelton";"";"Jason";"$2a$10$vjGrD68hBVCk7ipeUG3/8OMOcUR2WUVGkMQZ0BV3eNjjjsAWzuxZu";"ricardosalas@minetell.com";1;"";"2020-01-14 00:00:00";"2020-01-14 00:00:00";10;"";"df6fcb7e-89bd-4490-abea-8078976a76d4";1
30337;"";"";"";"";"Adam";"Schamehorn";"";"Adam";"$2a$10$vjGrD68hBVCk7ipeUG3/8OMOcUR2WUVGkMQZ0BV3eNjjjsAWzuxZu";"fernandobarrientos@minetell.com";1;"";"2020-01-14 00:00:00";"2020-01-14 00:00:00";10;"";"60eb5176-226b-454a-bd04-3cbf2291d2d8";1
30338;"";"";"";"";"Joel";"Teegee";"";"Joel";"$2a$10$vjGrD68hBVCk7ipeUG3/8OMOcUR2WUVGkMQZ0BV3eNjjjsAWzuxZu";"andylopez@minetell.com";1;"";"2020-01-14 00:00:00";"2020-01-14 00:00:00";10;"";"1e4f5fe8-1971-4c65-b5fa-549adc16f6ed";1
30345;"";"";"";"";"Walter";"Warville";"";"Walter";"$2a$10$vjGrD68hBVCk7ipeUG3/8OMOcUR2WUVGkMQZ0BV3eNjjjsAWzuxZu";"cesargodinez@minetell.com";1;"";"2020-01-14 00:00:00";"2020-01-14 00:00:00";10;"";"ef154091-dce0-4722-b202-54549c13c65c";1
30346;"";"";"";"";"Bernard";"Luyben";"";"Bernard";"$2a$10$vjGrD68hBVCk7ipeUG3/8OMOcUR2WUVGkMQZ0BV3eNjjjsAWzuxZu";"franciscotorres@minetell.com";1;"";"2020-01-14 00:00:00";"2020-01-14 00:00:00";10;"";"47c8b8d1-7116-43d6-b174-c6e054113e33";1
30349;"";"";"";"";"Jason";"Lalonde";"";"Jason";"$2a$10$vjGrD68hBVCk7ipeUG3/8OMOcUR2WUVGkMQZ0BV3eNjjjsAWzuxZu";"cesarinfante@minetell.com";1;"";"2020-01-14 00:00:00";"2020-01-14 00:00:00";10;"";"ccfef2c7-d24f-4474-ad32-f5008b9666d6";1
30350;"";"";"";"";"Mark";"John";"";"Mark";"$2a$10$vjGrD68hBVCk7ipeUG3/8OMOcUR2WUVGkMQZ0BV3eNjjjsAWzuxZu";"davidhernandez@minetell.com";1;"";"2020-01-14 00:00:00";"2020-01-14 00:00:00";10;"";"18eab788-43f1-4cd0-900e-6a2bcdb0b03d";1
30351;"";"";"";"";"Elliott";"Leon";"";"Elliott";"$2a$10$vjGrD68hBVCk7ipeUG3/8OMOcUR2WUVGkMQZ0BV3eNjjjsAWzuxZu";"manuelmiranda@minetell.com";1;"";"2020-01-14 00:00:00";"2020-01-14 00:00:00";10;"";"bb3fef84-d96b-45df-ae0d-7e5c5978cdb1";1
30352;"";"";"";"";"Tyler";"Salewski";"";"Tyler";"$2a$10$vjGrD68hBVCk7ipeUG3/8OMOcUR2WUVGkMQZ0BV3eNjjjsAWzuxZu";"franciscogama@minetell.com";1;"";"2020-01-14 00:00:00";"2020-01-14 00:00:00";10;"";"6a1a83e1-28cd-4ba2-aa72-413554ce9d1f";1
30354;"";"";"";"";"Michael";"Bryan";"";"Michael";"$2a$10$vjGrD68hBVCk7ipeUG3/8OMOcUR2WUVGkMQZ0BV3eNjjjsAWzuxZu";"eleazarosuna@minetell.com";1;"";"2020-01-14 00:00:00";"2020-01-14 00:00:00";10;"";"1908b100-cb04-4c79-9875-5b36aa34911a";1
30359;"";"";"";"";"Jerome";"Prince";"";"Jerome";"$2a$10$vjGrD68hBVCk7ipeUG3/8OMOcUR2WUVGkMQZ0BV3eNjjjsAWzuxZu";"javiercervantes@minetell.com";1;"";"2020-01-14 00:00:00";"2020-01-14 00:00:00";10;"";"7dafbd79-dae0-4e98-9042-ff052e42cb5e";1
30361;"";"";"";"";"Arlen";"Fontaine";"";"Arlen";"$2a$10$vjGrD68hBVCk7ipeUG3/8OMOcUR2WUVGkMQZ0BV3eNjjjsAWzuxZu";"rubentirado@minetell.com";1;"";"2020-01-14 00:00:00";"2020-01-14 00:00:00";10;"";"8679730b-379f-478d-ab33-a3185a29a92d";1
30363;"";"";"";"";"Gordon";"Dahl";"";"Gordon";"$2a$10$vjGrD68hBVCk7ipeUG3/8OMOcUR2WUVGkMQZ0BV3eNjjjsAWzuxZu";"maurovillamil@minetell.com";1;"";"2020-01-14 00:00:00";"2020-01-14 00:00:00";10;"";"83151993-aa93-4a77-bafd-4364deefccbe";1
30364;"";"";"";"";"Kevin";"Coltman";"";"Kevin";"$2a$10$vjGrD68hBVCk7ipeUG3/8OMOcUR2WUVGkMQZ0BV3eNjjjsAWzuxZu";"reneperez@minetell.com";1;"";"2020-01-14 00:00:00";"2020-01-14 00:00:00";10;"";"006c1298-dc89-47a8-afd6-030851632ad9";1
30365;"";"";"";"";"Richard";"Beaton";"";"Richard";"$2a$10$vjGrD68hBVCk7ipeUG3/8OMOcUR2WUVGkMQZ0BV3eNjjjsAWzuxZu";"pedropalacios@minetell.com";1;"";"2020-01-14 00:00:00";"2020-01-14 00:00:00";10;"";"72b16c5c-52c9-40bf-ad7c-26a7060d2a80";1
30366;"";"";"";"";"Brian";"Coulter";"";"Brian";"$2a$10$vjGrD68hBVCk7ipeUG3/8OMOcUR2WUVGkMQZ0BV3eNjjjsAWzuxZu";"victornajera@minetell.com";1;"";"2020-01-14 00:00:00";"2020-01-14 00:00:00";10;"";"7733ef47-9dd2-4283-a613-6f2ab4a9b3d3";1
30368;"";"";"";"";"Richard";"Watson";"";"Richard";"$2a$10$vjGrD68hBVCk7ipeUG3/8OMOcUR2WUVGkMQZ0BV3eNjjjsAWzuxZu";"omarsixto@minetell.com";1;"";"2020-01-14 00:00:00";"2020-01-14 00:00:00";10;"";"8e0c90b5-c792-49c8-ae4f-275f82cf8b86";1
30369;"";"";"";"";"Christian";"Wyssen";"";"Christian";"$2a$10$vjGrD68hBVCk7ipeUG3/8OMOcUR2WUVGkMQZ0BV3eNjjjsAWzuxZu";"robertogaxiola@minetell.com";1;"";"2020-01-14 00:00:00";"2020-01-14 00:00:00";10;"";"5cc6e26d-0577-40b0-8cd0-f2fd932e262e";1
30370;"";"";"";"";"Eric";"Spears";"";"Eric";"$2a$10$vjGrD68hBVCk7ipeUG3/8OMOcUR2WUVGkMQZ0BV3eNjjjsAWzuxZu";"aristidesperalta@minetell.com";1;"";"2020-01-14 00:00:00";"2020-01-14 00:00:00";10;"";"d9ad435e-6d94-4858-9ef2-de893e271bbe";1
30371;"";"";"";"";"Daniel";"Swedak";"";"Daniel";"$2a$10$vjGrD68hBVCk7ipeUG3/8OMOcUR2WUVGkMQZ0BV3eNjjjsAWzuxZu";"marcomejia@minetell.com";1;"";"2020-01-14 00:00:00";"2020-01-14 00:00:00";10;"";"b720d760-bb84-4321-a1e2-64fc0fa74c40";1
30373;"";"";"";"";"Dylan";"Amyot";"";"Dylan";"$2a$10$vjGrD68hBVCk7ipeUG3/8OMOcUR2WUVGkMQZ0BV3eNjjjsAWzuxZu";"jesuserives@minetell.com";1;"";"2020-01-14 00:00:00";"2020-01-14 00:00:00";10;"";"c3f1e773-d3cc-41f9-8d6d-b2d20052f791";1
30374;"";"";"";"";"Stewart";"Ducheminski";"";"Stewart";"$2a$10$vjGrD68hBVCk7ipeUG3/8OMOcUR2WUVGkMQZ0BV3eNjjjsAWzuxZu";"josevaldez@minetell.com";1;"";"2020-01-14 00:00:00";"2020-01-14 00:00:00";10;"";"b128c2af-57a8-4dea-8071-d9ffc4540259";1
30375;"";"";"";"";"Brian";"Kozak";"";"Brian";"$2a$10$vjGrD68hBVCk7ipeUG3/8OMOcUR2WUVGkMQZ0BV3eNjjjsAWzuxZu";"isaacgarcia@minetell.com";1;"";"2020-01-14 00:00:00";"2020-01-14 00:00:00";10;"";"596a6143-20e9-487a-b8d9-a9b89467fe8b";1
30376;"";"";"";"";"Charles";"Howell";"";"Charles";"$2a$10$vjGrD68hBVCk7ipeUG3/8OMOcUR2WUVGkMQZ0BV3eNjjjsAWzuxZu";"gerardobarrera@minetell.com";1;"";"2020-01-14 00:00:00";"2020-01-14 00:00:00";10;"";"71f885cc-1f06-48e9-821b-c10d6dbabea6";1
30378;"";"";"";"";"Michelle";"McDonald";"";"Michelle";"$2a$10$vjGrD68hBVCk7ipeUG3/8OMOcUR2WUVGkMQZ0BV3eNjjjsAWzuxZu";"herlindoramos@minetell.com";1;"";"2020-01-14 00:00:00";"2020-01-14 00:00:00";10;"";"e5af3528-125f-400a-8f5f-ea1d4e053c7b";1
30379;"";"";"";"";"Peter";"Good";"";"Peter";"$2a$10$vjGrD68hBVCk7ipeUG3/8OMOcUR2WUVGkMQZ0BV3eNjjjsAWzuxZu";"jesuscastro@minetell.com";1;"";"2020-01-14 00:00:00";"2020-01-14 00:00:00";10;"";"e1926c44-f6fc-482a-bad5-7eaf71647c27";1
30380;"";"";"";"";"Bradley";"Arnold";"";"Bradley";"$2a$10$vjGrD68hBVCk7ipeUG3/8OMOcUR2WUVGkMQZ0BV3eNjjjsAWzuxZu";"pedrodias@minetell.com";1;"";"2020-01-14 00:00:00";"2020-01-14 00:00:00";10;"";"26537abc-5743-40df-b965-f3f19a67eee2";1
30382;"";"";"";"";"Shane";"Jamieson";"";"Shane";"$2a$10$vjGrD68hBVCk7ipeUG3/8OMOcUR2WUVGkMQZ0BV3eNjjjsAWzuxZu";"guadalupecastillo@minetell.com";1;"";"2020-01-14 00:00:00";"2020-01-14 00:00:00";10;"";"e2969385-d51d-48b5-a174-773d14f84d00";1
30385;"";"";"";"";"Kevin";"Alarie";"";"Kevin";"$2a$10$vjGrD68hBVCk7ipeUG3/8OMOcUR2WUVGkMQZ0BV3eNjjjsAWzuxZu";"gabrielnava@minetell.com";1;"";"2020-01-14 00:00:00";"2020-01-14 00:00:00";10;"";"e4f17cf8-3982-4d50-9cb2-4f2b6f2554ed";1
30386;"";"";"";"";"Vaughn";"Edwards";"";"Vaughn";"$2a$10$vjGrD68hBVCk7ipeUG3/8OMOcUR2WUVGkMQZ0BV3eNjjjsAWzuxZu";"marcogahona@minetell.com";1;"";"2020-01-14 00:00:00";"2020-01-14 00:00:00";10;"";"12f1b804-9b4b-418a-a8da-c60ff4ccd39c";1
30387;"";"";"";"";"Dallas";"Munt";"";"Dallas";"$2a$10$vjGrD68hBVCk7ipeUG3/8OMOcUR2WUVGkMQZ0BV3eNjjjsAWzuxZu";"josecardoza@minetell.com";1;"";"2020-01-14 00:00:00";"2020-01-14 00:00:00";10;"";"96601274-9a98-4d50-b9da-794aa87c9e6c";1
30393;"";"";"";"";"Kenneth";"Beckley";"";"Kenneth";"$2a$10$vjGrD68hBVCk7ipeUG3/8OMOcUR2WUVGkMQZ0BV3eNjjjsAWzuxZu";"carlossaenz@minetell.com";1;"";"2020-01-14 00:00:00";"2020-01-14 00:00:00";10;"";"e115b4cb-a26b-454d-875a-770b1ff9c521";1
30394;"";"";"";"";"Clark";"Kaluza";"";"Clark";"$2a$10$vjGrD68hBVCk7ipeUG3/8OMOcUR2WUVGkMQZ0BV3eNjjjsAWzuxZu";"danielteran@minetell.com";1;"";"2020-01-14 00:00:00";"2020-01-14 00:00:00";10;"";"cedd60b9-3aeb-4821-a439-33d730d8ea94";1
30396;"";"";"";"";"Dion";"Benninger";"";"Dion";"$2a$10$vjGrD68hBVCk7ipeUG3/8OMOcUR2WUVGkMQZ0BV3eNjjjsAWzuxZu";"hectormejia@minetell.com";1;"";"2020-01-14 00:00:00";"2020-01-14 00:00:00";10;"";"af60ca6a-0d29-4751-b5e8-76709508c22d";1
30397;"";"";"";"";"Ryan";"Kozevnikov";"";"Ryan";"";"alfredocalderon@minetell.com";1;"";"2020-01-14 00:00:00";"2020-01-14 00:00:00";10;"";"a833b77f-3a76-48f7-b1ec-005d3943c1eb";1
30398;"";"";"";"";"Dalton";"Anatole";"";"Dalton";"";"hervizapot@minetell.com";1;"";"2020-01-14 00:00:00";"2020-01-14 00:00:00";10;"";"8934f727-2629-4443-a687-0c8bb421e44b";1
30399;"";"";"";"";"Alfred";"Johnson";"";"Alfred";"";"arnolochoa@minetell.com";1;"";"2020-01-14 00:00:00";"2020-01-14 00:00:00";10;"";"00076565-f615-459c-9a6d-c2ef37970e8b";1
30400;"";"";"";"";"Leslie";"Thomas";"";"Leslie";"";"joseortiz@minetell.com";1;"";"2020-01-14 00:00:00";"2020-01-14 00:00:00";10;"";"1fb7175a-6fdf-44a6-96db-c405c7737879";1
30401;"";"";"";"";"Matthew";"Gwilliam";"";"Matthew";"";"joseportoni@minetell.com";1;"";"2020-01-14 00:00:00";"2020-01-14 00:00:00";10;"";"b282ab27-b1d1-4d81-8e6e-ed95c968ff0c";1
30403;"";"";"";"";"Trent";"Torwalt";"";"Trent";"";"miguelrodriguez@minetell.com";1;"";"2020-01-14 00:00:00";"2020-01-14 00:00:00";10;"";"cbb0bae7-b95b-440d-9392-322d08d8d3cf";1
30404;"";"";"";"";"Corie";"Burleigh";"";"Corie";"";"mariocarbajalmendoza@minetell.com";1;"";"2020-01-14 00:00:00";"2020-01-14 00:00:00";10;"";"7d6915f5-2c85-4efd-af36-489903b3c070";1
30405;"Dispatch";"Start Journey";"";"";"Ryan";"Hick";"";"Ryan";"";"dispatch1@minetell.com";1;"";"2020-01-14 00:00:00";"2020-01-14 00:00:00";10;"";"7d6915f5-2c85-4efd-af36-489903b3c070";1
30410;"";"";"";"";"Louis";"Carriere";"";"Louis";"";"dispatch2@minetell.com";1;"";"2020-01-14 00:00:00";"2020-01-14 00:00:00";10;"";"";1
30412;"";"";"";"";"James";"Harder";"";"James";"";"dispatch3@minetell.com";1;"";"2020-01-14 00:00:00";"2020-01-14 00:00:00";10;"";"";1
30414;"";"";"";"";"Thomas";"Hopkins";"";"Thomas";"";"dispatch4@minetell.com";1;"";"2020-01-14 00:00:00";"2020-01-14 00:00:00";10;"";"";1
30415;"";"";"";"";"Conrad";"Power";"";"Conrad";"";"dispatch5@minetell.com";1;"";"2020-01-14 00:00:00";"2020-01-14 00:00:00";10;"";"";1
30416;"";"";"";"";"Ronald";"Tennant";"";"Ronald";"";"dispatch6@minetell.com";1;"";"2020-01-14 00:00:00";"2020-01-14 00:00:00";10;"";"";1
30421;"";"";"";"";"Matthew";"Norum";"";"Matthew";"";"dispatch7@minetell.com";1;"";"2020-01-14 00:00:00";"2020-01-14 00:00:00";10;"";"";1
30422;"";"";"";"";"Melvin";"Hurley";"";"Melvin";"";"dispatch8@minetell.com";1;"";"2020-01-14 00:00:00";"2020-01-14 00:00:00";10;"";"";1
30423;"";"";"";"";"Carla";"Laffin";"";"Carla";"";"dispatch9@minetell.com";1;"";"2020-01-14 00:00:00";"2020-01-14 00:00:00";10;"";"";1
30425;"";"";"";"";"Mark";"Norgren";"";"Mark";"";"dispatch10@minetell.com";1;"";"2020-01-14 00:00:00";"2020-01-14 00:00:00";10;"";"";1
30427;"";"";"";"";"Daniel";"Thiffault";"";"Daniel";"";"dispatch11@minetell.com";1;"";"2020-01-14 00:00:00";"2020-01-14 00:00:00";10;"";"";1
30430;"";"";"";"";"Christopher";"Fitzpatrick";"";"Christopher";"";"dispatch12@minetell.com";1;"";"2020-01-14 00:00:00";"2020-01-14 00:00:00";10;"";"";1
30433;"";"";"";"";"Sheldon";"Emberley";"";"Sheldon";"";"dispatch13@minetell.com";1;"";"2020-01-14 00:00:00";"2020-01-14 00:00:00";10;"";"";1
30434;"";"";"";"";"Marcel";"Edel";"";"Marcel";"";"dispatch14@minetell.com";1;"";"2020-01-14 00:00:00";"2020-01-14 00:00:00";10;"";"";1
50005;"";"";"";"";"Ruby";"Taylor";"";"Ruby";"";"dispatch15@minetell.com";1;"";"2020-01-14 00:00:00";"2020-01-14 00:00:00";10;"";"";1
50017;"";"";"";"";"Louella";"Pacaide";"";"Louella";"";"dispatch16@minetell.com";1;"";"2020-01-14 00:00:00";"2020-01-14 00:00:00";10;"";"";1
50021;"";"";"";"";"Quade";"Mindel";"";"Quade";"";"dispatch17@minetell.com";1;"";"2020-01-14 00:00:00";"2020-01-14 00:00:00";10;"";"";1
50023;"";"";"";"";"Nadine";"Sam";"";"Nadine";"";"dispatch18@minetell.com";1;"";"2020-01-14 00:00:00";"2020-01-14 00:00:00";10;"";"";1
50026;"";"";"";"";"Stuart";"Lessard";"";"Stuart";"";"dispatch19@minetell.com";1;"";"2020-01-14 00:00:00";"2020-01-14 00:00:00";10;"";"";1
50027;"";"";"";"";"Maury";"Friesen";"";"Maury";"";"dispatch20@minetell.com";1;"";"2020-01-14 00:00:00";"2020-01-14 00:00:00";10;"";"";1
50028;"";"";"";"";"Metro";"Weselowski";"";"Metro";"";"dispatch21@minetell.com";1;"";"2020-01-14 00:00:00";"2020-01-14 00:00:00";10;"";"";1
50029;"";"";"";"";"Gerald";"Barrett";"";"Gerald";"";"dispatch22@minetell.com";1;"";"2020-01-14 00:00:00";"2020-01-14 00:00:00";10;"";"";1
50030;"";"";"";"";"Keith";"Corliss";"";"Keith";"";"dispatch23@minetell.com";1;"";"2020-01-14 00:00:00";"2020-01-14 00:00:00";10;"";"";1
50032;"";"";"";"";"Glen";"Greenlees";"";"Glen";"";"dispatch24@minetell.com";1;"";"2020-01-14 00:00:00";"2020-01-14 00:00:00";10;"";"";1
50037;"";"";"";"";"Michael";"Frank";"";"Michael";"";"dispatch25@minetell.com";1;"";"2020-01-14 00:00:00";"2020-01-14 00:00:00";10;"";"";1
50039;"";"";"";"";"Megan";"Spooner";"";"Megan";"";"dispatch26@minetell.com";1;"";"2020-01-14 00:00:00";"2020-01-14 00:00:00";10;"";"";1
50041;"";"";"";"";"Justin";"Free";"";"Justin";"";"dispatch27@minetell.com";1;"";"2020-01-14 00:00:00";"2020-01-14 00:00:00";10;"";"";1
50045;"";"";"";"";"Scott";"Beattie";"";"Scott";"";"dispatch28@minetell.com";1;"";"2020-01-14 00:00:00";"2020-01-14 00:00:00";10;"";"";1
50046;"";"";"";"";"James";"Storey";"";"James";"";"dispatch29@minetell.com";1;"";"2020-01-14 00:00:00";"2020-01-14 00:00:00";10;"";"";1
50047;"";"";"";"";"Matthew";"Nibecker";"";"Matthew";"";"dispatch30@minetell.com";1;"";"2020-01-14 00:00:00";"2020-01-14 00:00:00";10;"";"";1
50050;"";"";"";"";"Jesse";"Hallman";"";"Jesse";"";"dispatch31@minetell.com";1;"";"2020-01-14 00:00:00";"2020-01-14 00:00:00";10;"";"";1
50051;"";"";"";"";"Taite";"Forshner";"";"Taite";"";"dispatch32@minetell.com";1;"";"2020-01-14 00:00:00";"2020-01-14 00:00:00";10;"";"";1
50052;"";"";"";"";"Dallas";"Olson";"";"Dallas";"";"dispatch33@minetell.com";1;"";"2020-01-14 00:00:00";"2020-01-14 00:00:00";10;"";"";1
50054;"";"";"";"";"Braedon";"Carswell";"";"Braedon";"";"dispatch34@minetell.com";1;"";"2020-01-14 00:00:00";"2020-01-14 00:00:00";10;"";"";1
50058;"";"";"";"";"Lia";"Dignard";"";"Lia";"";"dispatch35@minetell.com";1;"";"2020-01-14 00:00:00";"2020-01-14 00:00:00";10;"";"";1
50059;"";"";"";"";"Jeremiah";"Marko";"";"Jeremiah";"";"dispatch36@minetell.com";1;"";"2020-01-14 00:00:00";"2020-01-14 00:00:00";10;"";"";1
50061;"";"";"";"";"Darryl";"Sheehan";"";"Darryl";"";"dispatch37@minetell.com";1;"";"2020-01-14 00:00:00";"2020-01-14 00:00:00";10;"";"";1
50062;"";"";"";"";"Roxanne";"Barton";"";"Roxanne";"";"dispatch38@minetell.com";1;"";"2020-01-14 00:00:00";"2020-01-14 00:00:00";10;"";"";1
50068;"";"";"";"";"Shelby";"Watier";"";"Shelby";"";"dispatch39@minetell.com";1;"";"2020-01-14 00:00:00";"2020-01-14 00:00:00";10;"";"";1
58116;"";"";"";"";"Jason";"Linton";"";"Jason";"";"dispatch40@minetell.com";1;"";"2020-01-14 00:00:00";"2020-01-14 00:00:00";10;"";"";1
58117;"";"";"";"";"Joshua";"Weber";"";"Joshua";"";"dispatch41@minetell.com";1;"";"2020-01-14 00:00:00";"2020-01-14 00:00:00";10;"";"";1
58123;"";"";"";"";"Rudolph";"Lipus";"";"Rudolph";"";"dispatch42@minetell.com";1;"";"2020-01-14 00:00:00";"2020-01-14 00:00:00";10;"";"";1
58126;"";"";"";"";"Cailie";"Paterson";"";"Cailie";"";"dispatch43@minetell.com";1;"";"2020-01-14 00:00:00";"2020-01-14 00:00:00";10;"";"";1
58127;"";"";"";"";"Cody";"Hornett";"";"Cody";"";"dispatch44@minetell.com";1;"";"2020-01-14 00:00:00";"2020-01-14 00:00:00";10;"";"";1
58128;"";"";"";"";"Sandra";"Downey";"";"Sandra";"";"dispatch45@minetell.com";1;"";"2020-01-14 00:00:00";"2020-01-14 00:00:00";10;"";"";1
58129;"";"";"";"";"Vladimir";"Fuentes-Meza";"";"Vladimir";"";"dispatch46@minetell.com";1;"";"2020-01-14 00:00:00";"2020-01-14 00:00:00";10;"";"";1
58132;"";"";"";"";"Karl";"Prince";"";"Karl";"";"dispatch47@minetell.com";1;"";"2020-01-14 00:00:00";"2020-01-14 00:00:00";10;"";"";1
58135;"";"";"";"";"Lacy-Rae";"Dupuis";"";"Lacy-Rae";"";"dispatch48@minetell.com";1;"";"2020-01-14 00:00:00";"2020-01-14 00:00:00";10;"";"";1
58136;"";"";"";"";"Michael";"Chapman";"";"Michael";"";"dispatch49@minetell.com";1;"";"2020-01-14 00:00:00";"2020-01-14 00:00:00";10;"";"";1
58137;"";"";"";"";"Kathryn";"Firomski";"";"Kathryn";"";"dispatch50@minetell.com";1;"";"2020-01-14 00:00:00";"2020-01-14 00:00:00";10;"";"";1
58138;"";"";"";"";"Lori";"Rothenbusch";"";"Lori";"";"dispatch51@minetell.com";1;"";"2020-01-14 00:00:00";"2020-01-14 00:00:00";10;"";"";1
58140;"";"";"";"";"Dalvit";"Gill";"";"Dalvit";"";"dispatch52@minetell.com";1;"";"2020-01-14 00:00:00";"2020-01-14 00:00:00";10;"";"";1
58143;"";"";"";"";"Julian";"Weber";"";"Julian";"";"dispatch53@minetell.com";1;"";"2020-01-14 00:00:00";"2020-01-14 00:00:00";10;"";"";1
58146;"";"";"";"";"William";"Hatch";"";"William";"";"dispatch54@minetell.com";1;"";"2020-01-14 00:00:00";"2020-01-14 00:00:00";10;"";"";1
58147;"";"";"";"";"Jenna";"Espersen";"";"Jenna";"";"dispatch55@minetell.com";1;"";"2020-01-14 00:00:00";"2020-01-14 00:00:00";10;"";"";1
58148;"";"";"";"";"James";"Cochran";"";"James";"";"dispatch56@minetell.com";1;"";"2020-01-14 00:00:00";"2020-01-14 00:00:00";10;"";"";1
58149;"";"";"";"";"Robert";"Corbin";"";"Robert";"";"dispatch57@minetell.com";1;"";"2020-01-14 00:00:00";"2020-01-14 00:00:00";10;"";"";1
58152;"";"";"";"";"David";"Blake";"";"David";"";"dispatch58@minetell.com";1;"";"2020-01-14 00:00:00";"2020-01-14 00:00:00";10;"";"";1
58153;"";"";"";"";"Jerrick";"Broad";"";"Jerrick";"";"dispatch59@minetell.com";1;"";"2020-01-14 00:00:00";"2020-01-14 00:00:00";10;"";"";1
58157;"";"";"";"";"Cody";"Thon";"";"Cody";"";"dispatch60@minetell.com";1;"";"2020-01-14 00:00:00";"2020-01-14 00:00:00";10;"";"";1
58159;"";"";"";"";"Larry";"Erlendson";"";"Larry";"";"dispatch61@minetell.com";1;"";"2020-01-14 00:00:00";"2020-01-14 00:00:00";10;"";"";1
58163;"";"";"";"";"Benoit";"Kennedy";"";"Benoit";"";"dispatch62@minetell.com";1;"";"2020-01-14 00:00:00";"2020-01-14 00:00:00";10;"";"";1
58164;"";"";"";"";"William";"Glanville";"";"William";"";"dispatch63@minetell.com";1;"";"2020-01-14 00:00:00";"2020-01-14 00:00:00";10;"";"";1
58168;"";"";"";"";"Craig";"Nordquist";"";"Craig";"";"dispatch64@minetell.com";1;"";"2020-01-14 00:00:00";"2020-01-14 00:00:00";10;"";"";1
58169;"";"";"";"";"Trent";"Erickson";"";"Trent";"";"dispatch65@minetell.com";1;"";"2020-01-14 00:00:00";"2020-01-14 00:00:00";10;"";"";1
58171;"";"";"";"";"William";"Campbell";"";"William";"";"dispatch66@minetell.com";1;"";"2020-01-14 00:00:00";"2020-01-14 00:00:00";10;"";"";1
58173;"";"";"";"";"Carla";"Warkentin";"";"Carla";"";"dispatch67@minetell.com";1;"";"2020-01-14 00:00:00";"2020-01-14 00:00:00";10;"";"";1
58175;"";"";"";"";"Alexandria";"Leon";"";"Alexandria";"";"dispatch68@minetell.com";1;"";"2020-01-14 00:00:00";"2020-01-14 00:00:00";10;"";"";1
58176;"";"";"";"";"Denis";"Rivard";"";"Denis";"";"dispatch69@minetell.com";1;"";"2020-01-14 00:00:00";"2020-01-14 00:00:00";10;"";"";1
58177;"";"";"";"";"Johannes";"Buskop";"";"Johannes";"";"dispatch70@minetell.com";1;"";"2020-01-14 00:00:00";"2020-01-14 00:00:00";10;"";"";1
58180;"";"";"";"";"Jean-Paul";"Lavallee";"";"Jean-Paul";"";"dispatch71@minetell.com";1;"";"2020-01-14 00:00:00";"2020-01-14 00:00:00";10;"";"";1
58181;"";"";"";"";"Justin";"Surette";"";"Justin";"";"dispatch72@minetell.com";1;"";"2020-01-14 00:00:00";"2020-01-14 00:00:00";10;"";"";1
58183;"";"";"";"";"Wayne";"Walkden";"";"Wayne";"";"dispatch73@minetell.com";1;"";"2020-01-14 00:00:00";"2020-01-14 00:00:00";10;"";"";1
58185;"";"";"";"";"Robert";"Dupuis";"";"Robert";"";"dispatch74@minetell.com";1;"";"2020-01-14 00:00:00";"2020-01-14 00:00:00";10;"";"";1
58186;"";"";"";"";"Harvey";"Fleury";"";"Harvey";"";"dispatch75@minetell.com";1;"";"2020-01-14 00:00:00";"2020-01-14 00:00:00";10;"";"";1
58187;"";"";"";"";"Jason";"Sacrey";"";"Jason";"";"dispatch76@minetell.com";1;"";"2020-01-14 00:00:00";"2020-01-14 00:00:00";10;"";"";1
58188;"";"";"";"";"Matthew";"George";"";"Matthew";"";"dispatch77@minetell.com";1;"";"2020-01-14 00:00:00";"2020-01-14 00:00:00";10;"";"";1
58189;"";"";"";"";"Kevin";"Pierre";"";"Kevin";"";"dispatch78@minetell.com";1;"";"2020-01-14 00:00:00";"2020-01-14 00:00:00";10;"";"";1
58190;"";"";"";"";"Maurice";"Thebeau";"";"Maurice";"";"dispatch79@minetell.com";1;"";"2020-01-14 00:00:00";"2020-01-14 00:00:00";10;"";"";1
58191;"";"";"";"";"Jeremy";"Niles";"";"Jeremy";"";"dispatch80@minetell.com";1;"";"2020-01-14 00:00:00";"2020-01-14 00:00:00";10;"";"";1
58193;"";"";"";"";"Justa";"Sam";"";"Justa";"";"dispatch81@minetell.com";1;"";"2020-01-14 00:00:00";"2020-01-14 00:00:00";10;"";"";1
58194;"";"";"";"";"Kristen";"Sam";"";"Kristen";"";"dispatch82@minetell.com";1;"";"2020-01-14 00:00:00";"2020-01-14 00:00:00";10;"";"";1
58196;"";"";"";"";"Brandon";"Spooner";"";"Brandon";"";"dispatch83@minetell.com";1;"";"2020-01-14 00:00:00";"2020-01-14 00:00:00";10;"";"";1
58198;"";"";"";"";"Brandon";"Plamondon";"";"Brandon";"";"dispatch84@minetell.com";1;"";"2020-01-14 00:00:00";"2020-01-14 00:00:00";10;"";"";1
58200;"";"";"";"";"Montgomery";"Lewis";"";"Montgomery";"";"dispatch85@minetell.com";1;"";"2020-01-14 00:00:00";"2020-01-14 00:00:00";10;"";"";1
58201;"";"";"";"";"Peter";"Wales";"";"Peter";"";"dispatch86@minetell.com";1;"";"2020-01-14 00:00:00";"2020-01-14 00:00:00";10;"";"";1
58206;"";"";"";"";"Randell";"Clayton";"";"Randell";"";"dispatch87@minetell.com";1;"";"2020-01-14 00:00:00";"2020-01-14 00:00:00";10;"";"";1
58208;"";"";"";"";"Robin";"Harper";"";"Robin";"";"dispatch88@minetell.com";1;"";"2020-01-14 00:00:00";"2020-01-14 00:00:00";10;"";"";1
58209;"";"";"";"";"Nigel";"Chan";"";"Nigel";"";"dispatch89@minetell.com";1;"";"2020-01-14 00:00:00";"2020-01-14 00:00:00";10;"";"";1
58217;"";"";"";"";"Joanne";"Fisher";"";"Joanne";"";"dispatch90@minetell.com";1;"";"2020-01-14 00:00:00";"2020-01-14 00:00:00";10;"";"";1
58225;"";"";"";"";"William";"Sutherland";"";"William";"";"dispatch91@minetell.com";1;"";"2020-01-14 00:00:00";"2020-01-14 00:00:00";10;"";"";1
58226;"";"";"";"";"Melissa";"Carter";"";"Melissa";"";"dispatch92@minetell.com";1;"";"2020-01-14 00:00:00";"2020-01-14 00:00:00";10;"";"";1
58227;"";"";"";"";"Richard";"Lindquist";"";"Richard";"";"dispatch93@minetell.com";1;"";"2020-01-14 00:00:00";"2020-01-14 00:00:00";10;"";"";1
58229;"";"";"";"";"Darcy";"Arthurs";"";"Darcy";"";"dispatch94@minetell.com";1;"";"2020-01-14 00:00:00";"2020-01-14 00:00:00";10;"";"";1
58230;"";"";"";"";"Richard";"Lindquist";"";"Richard";"";"dispatch95@minetell.com";1;"";"2020-01-14 00:00:00";"2020-01-14 00:00:00";10;"";"";1
58232;"";"";"";"";"Riley";"Cadwell";"";"Riley";"";"dispatch96@minetell.com";1;"";"2020-01-14 00:00:00";"2020-01-14 00:00:00";10;"";"";1
58236;"";"";"";"";"Ryan";"Turner";"";"Ryan";"";"dispatch97@minetell.com";1;"";"2020-01-14 00:00:00";"2020-01-14 00:00:00";10;"";"";1
58239;"";"";"";"";"Ronald";"Roth";"";"Ronald";"";"dispatch98@minetell.com";1;"";"2020-01-14 00:00:00";"2020-01-14 00:00:00";10;"";"";1
58241;"";"";"";"";"Emily";"MacDonald";"";"Emily";"";"dispatch99@minetell.com";1;"";"2020-01-14 00:00:00";"2020-01-14 00:00:00";10;"";"";1
58246;"";"";"";"";"Gareth";"Richards";"";"Gareth";"";"dispatch100@minetell.com";1;"";"2020-01-14 00:00:00";"2020-01-14 00:00:00";10;"";"";1
58247;"";"";"";"";"Axel";"Orr";"";"Axel";"";"dispatch101@minetell.com";1;"";"2020-01-14 00:00:00";"2020-01-14 00:00:00";10;"";"";1
58248;"";"";"";"";"Morgan";"Henderson";"";"Morgan";"";"dispatch102@minetell.com";1;"";"2020-01-14 00:00:00";"2020-01-14 00:00:00";10;"";"";1
58253;"";"";"";"";"Stephanie";"Mrdeza";"";"Stephanie";"";"dispatch103@minetell.com";1;"";"2020-01-14 00:00:00";"2020-01-14 00:00:00";10;"";"";1
58255;"";"";"";"";"Martin";"Sarrazin";"";"Martin";"";"dispatch104@minetell.com";1;"";"2020-01-14 00:00:00";"2020-01-14 00:00:00";10;"";"";1
58262;"";"";"";"";"Shahar";"Moudahi";"";"Shahar";"";"dispatch105@minetell.com";1;"";"2020-01-14 00:00:00";"2020-01-14 00:00:00";10;"";"";1
58264;"";"";"";"";"Glen";"Fisher";"";"Glen";"";"dispatch106@minetell.com";1;"";"2020-01-14 00:00:00";"2020-01-14 00:00:00";10;"";"";1
58265;"";"";"";"";"James";"Prince";"";"James";"";"dispatch107@minetell.com";1;"";"2020-01-14 00:00:00";"2020-01-14 00:00:00";10;"";"";1
58268;"";"";"";"";"Riley";"Sander";"";"Riley";"";"dispatch108@minetell.com";1;"";"2020-01-14 00:00:00";"2020-01-14 00:00:00";10;"";"";1
58269;"";"";"";"";"Russel";"Gawa";"";"Russel";"";"dispatch109@minetell.com";1;"";"2020-01-14 00:00:00";"2020-01-14 00:00:00";10;"";"";1
58270;"";"";"";"";"Jacob";"Lemon";"";"Jacob";"";"dispatch110@minetell.com";1;"";"2020-01-14 00:00:00";"2020-01-14 00:00:00";10;"";"";1
58271;"";"";"";"";"Richard";"Valaire";"";"Richard";"";"dispatch111@minetell.com";1;"";"2020-01-14 00:00:00";"2020-01-14 00:00:00";10;"";"";1
58277;"";"";"";"";"Myles";"Holenstein";"";"Myles";"";"dispatch112@minetell.com";1;"";"2020-01-14 00:00:00";"2020-01-14 00:00:00";10;"";"";1
58278;"";"";"";"";"Joshua";"Motion";"";"Joshua";"";"dispatch113@minetell.com";1;"";"2020-01-14 00:00:00";"2020-01-14 00:00:00";10;"";"";1
58282;"";"";"";"";"Jason";"Barr";"";"Jason";"";"dispatch114@minetell.com";1;"";"2020-01-14 00:00:00";"2020-01-14 00:00:00";10;"";"";1
58283;"";"";"";"";"Lonnie";"King";"";"Lonnie";"";"dispatch115@minetell.com";1;"";"2020-01-14 00:00:00";"2020-01-14 00:00:00";10;"";"";1
58285;"";"";"";"";"Lorne";"Euverman";"";"Lorne";"";"dispatch116@minetell.com";1;"";"2020-01-14 00:00:00";"2020-01-14 00:00:00";10;"";"";1
58287;"";"";"";"";"Kasey";"Cameron";"";"Kasey";"";"dispatch117@minetell.com";1;"";"2020-01-14 00:00:00";"2020-01-14 00:00:00";10;"";"";1
58293;"";"";"";"";"Jesse";"Campbell";"";"Jesse";"";"dispatch118@minetell.com";1;"";"2020-01-14 00:00:00";"2020-01-14 00:00:00";10;"";"";1
58294;"";"";"";"";"Donald";"Serle";"";"Donald";"";"dispatch119@minetell.com";1;"";"2020-01-14 00:00:00";"2020-01-14 00:00:00";10;"";"";1
58296;"";"";"";"";"Kaelan";"Short";"";"Kaelan";"";"dispatch120@minetell.com";1;"";"2020-01-14 00:00:00";"2020-01-14 00:00:00";10;"";"";1
58297;"";"";"";"";"Dillon";"Storie";"";"Dillon";"";"dispatch121@minetell.com";1;"";"2020-01-14 00:00:00";"2020-01-14 00:00:00";10;"";"";1
58298;"";"";"";"";"Rex";"Schamehorn";"";"Rex";"";"dispatch122@minetell.com";1;"";"2020-01-14 00:00:00";"2020-01-14 00:00:00";10;"";"";1
58301;"";"";"";"";"Caroline";"Sam";"";"Caroline";"";"dispatch123@minetell.com";1;"";"2020-01-14 00:00:00";"2020-01-14 00:00:00";10;"";"";1
58306;"";"";"";"";"Charles";"Prince";"";"Charles";"";"dispatch124@minetell.com";1;"";"2020-01-14 00:00:00";"2020-01-14 00:00:00";10;"";"";1
58316;"";"";"";"";"Matthew";"Goodland";"";"Matthew";"";"dispatch125@minetell.com";1;"";"2020-01-14 00:00:00";"2020-01-14 00:00:00";10;"";"";1
58321;"";"";"";"";"John";"Burr";"";"John";"";"dispatch126@minetell.com";1;"";"2020-01-14 00:00:00";"2020-01-14 00:00:00";10;"";"";1
58325;"";"";"";"";"George";"Saplywyj";"";"George";"";"dispatch127@minetell.com";1;"";"2020-01-14 00:00:00";"2020-01-14 00:00:00";10;"";"";1
58326;"";"";"";"";"Berge";"Simonian";"";"Berge";"";"dispatch128@minetell.com";1;"";"2020-01-14 00:00:00";"2020-01-14 00:00:00";10;"";"";1
58330;"";"";"";"";"Elysia";"Prince";"";"Elysia";"";"dispatch129@minetell.com";1;"";"2020-01-14 00:00:00";"2020-01-14 00:00:00";10;"";"";1
58332;"";"";"";"";"Gregory";"Crawford";"";"Gregory";"";"dispatch130@minetell.com";1;"";"2020-01-14 00:00:00";"2020-01-14 00:00:00";10;"";"";1
58333;"";"";"";"";"Brian";"Kennedy";"";"Brian";"";"dispatch131@minetell.com";1;"";"2020-01-14 00:00:00";"2020-01-14 00:00:00";10;"";"";1
58339;"";"";"";"";"Roderick";"Snodgrass";"";"Roderick";"";"dispatch132@minetell.com";1;"";"2020-01-14 00:00:00";"2020-01-14 00:00:00";10;"";"";1
58341;"";"";"";"";"Kurt";"Kristoffersen";"";"Kurt";"";"dispatch133@minetell.com";1;"";"2020-01-14 00:00:00";"2020-01-14 00:00:00";10;"";"";1
58343;"";"";"";"";"Jason";"Albertson";"";"Jason";"";"dispatch134@minetell.com";1;"";"2020-01-14 00:00:00";"2020-01-14 00:00:00";10;"";"";1
58351;"";"";"";"";"Ramona";"Prince";"";"Ramona";"";"dispatch135@minetell.com";1;"";"2020-01-14 00:00:00";"2020-01-14 00:00:00";10;"";"";1
58354;"";"";"";"";"Carolyn";"Boake";"";"Carolyn";"";"dispatch136@minetell.com";1;"";"2020-01-14 00:00:00";"2020-01-14 00:00:00";10;"";"";1
58355;"";"";"";"";"Joseph";"Hunt";"";"Joseph";"";"dispatch137@minetell.com";1;"";"2020-01-14 00:00:00";"2020-01-14 00:00:00";10;"";"";1
58357;"";"";"";"";"John";"Milne";"";"John";"";"dispatch138@minetell.com";1;"";"2020-01-14 00:00:00";"2020-01-14 00:00:00";10;"";"";1
58360;"";"";"";"";"Karen";"Olson";"";"Karen";"";"dispatch139@minetell.com";1;"";"2020-01-14 00:00:00";"2020-01-14 00:00:00";10;"";"";1
58363;"";"";"";"";"Peter";"Bourassa";"";"Peter";"";"dispatch140@minetell.com";1;"";"2020-01-14 00:00:00";"2020-01-14 00:00:00";10;"";"";1
58364;"";"";"";"";"Daniel";"Pellan";"";"Daniel";"";"dispatch141@minetell.com";1;"";"2020-01-14 00:00:00";"2020-01-14 00:00:00";10;"";"";1
58369;"";"";"";"";"Christopher";"Holmstrup";"";"Christopher";"";"dispatch142@minetell.com";1;"";"2020-01-14 00:00:00";"2020-01-14 00:00:00";10;"";"";1
58370;"";"";"";"";"Paul";"Bird";"";"Paul";"";"dispatch143@minetell.com";1;"";"2020-01-14 00:00:00";"2020-01-14 00:00:00";10;"";"";1
58371;"";"";"";"";"Scott";"Snodgrass";"";"Scott";"";"dispatch144@minetell.com";1;"";"2020-01-14 00:00:00";"2020-01-14 00:00:00";10;"";"";1
58372;"";"";"";"";"Scott";"Bryant";"";"Scott";"";"dispatch145@minetell.com";1;"";"2020-01-14 00:00:00";"2020-01-14 00:00:00";10;"";"";1
58373;"";"";"";"";"Desiree";"Whitely";"";"Desiree";"";"dispatch146@minetell.com";1;"";"2020-01-14 00:00:00";"2020-01-14 00:00:00";10;"";"";1
58374;"";"";"";"";"Craig";"Lockhart";"";"Craig";"";"dispatch147@minetell.com";1;"";"2020-01-14 00:00:00";"2020-01-14 00:00:00";10;"";"";1
58375;"";"";"";"";"Daniel";"Peters";"";"Daniel";"";"dispatch148@minetell.com";1;"";"2020-01-14 00:00:00";"2020-01-14 00:00:00";10;"";"";1
58376;"";"";"";"";"Sheldon";"Brinson";"";"Sheldon";"";"dispatch149@minetell.com";1;"";"2020-01-14 00:00:00";"2020-01-14 00:00:00";10;"";"";1
58377;"";"";"";"";"Eric";"Prince";"";"Eric";"";"dispatch150@minetell.com";1;"";"2020-01-14 00:00:00";"2020-01-14 00:00:00";10;"";"";1
58378;"";"";"";"";"Bradley";"Grimmer";"";"Bradley";"";"dispatch151@minetell.com";1;"";"2020-01-14 00:00:00";"2020-01-14 00:00:00";10;"";"";1
58379;"";"";"";"";"Troy";"Olson";"";"Troy";"";"dispatch152@minetell.com";1;"";"2020-01-14 00:00:00";"2020-01-14 00:00:00";10;"";"";1
58380;"";"";"";"";"Pamela";"Madsen";"";"Pamela";"";"dispatch153@minetell.com";1;"";"2020-01-14 00:00:00";"2020-01-14 00:00:00";10;"";"";1
58386;"";"";"";"";"Scott";"Williams";"";"Scott";"";"dispatch154@minetell.com";1;"";"2020-01-14 00:00:00";"2020-01-14 00:00:00";10;"";"";1
58388;"";"";"";"";"Harold";"Hewlett";"";"Harold";"";"dispatch155@minetell.com";1;"";"2020-01-14 00:00:00";"2020-01-14 00:00:00";10;"";"";1
58389;"";"";"";"";"Rolando";"Barthelemy";"";"Rolando";"";"dispatch156@minetell.com";1;"";"2020-01-14 00:00:00";"2020-01-14 00:00:00";10;"";"";1
58392;"";"";"";"";"Nick";"Hsu";"";"Nick";"";"dispatch157@minetell.com";1;"";"2020-01-14 00:00:00";"2020-01-14 00:00:00";10;"";"";1
58427;"";"";"";"";"Jowan";"El Ghor";"";"Jowan";"";"dispatch158@minetell.com";1;"";"2020-01-14 00:00:00";"2020-01-14 00:00:00";10;"";"";1
58428;"";"";"";"";"Brent";"Loewen";"";"Brent";"";"dispatch159@minetell.com";1;"";"2020-01-14 00:00:00";"2020-01-14 00:00:00";10;"";"";1
58430;"";"";"";"";"James";"Klein";"";"James";"";"dispatch160@minetell.com";1;"";"2020-01-14 00:00:00";"2020-01-14 00:00:00";10;"";"";1
58433;"";"";"";"";"Kyle";"Mccormack";"";"Kyle";"";"dispatch161@minetell.com";1;"";"2020-01-14 00:00:00";"2020-01-14 00:00:00";10;"";"";1
58434;"";"";"";"";"Quentin";"Finlay";"";"Quentin";"";"dispatch162@minetell.com";1;"";"2020-01-14 00:00:00";"2020-01-14 00:00:00";10;"";"";1
58438;"";"";"";"";"Laine";"Beaulieu";"";"Laine";"";"dispatch163@minetell.com";1;"";"2020-01-14 00:00:00";"2020-01-14 00:00:00";10;"";"";1
58443;"";"";"";"";"Christian";"Holtz";"";"Christian";"";"dispatch164@minetell.com";1;"";"2020-01-14 00:00:00";"2020-01-14 00:00:00";10;"";"";1
58451;"";"";"";"";"Chad";"Hamblin";"";"Chad";"";"dispatch165@minetell.com";1;"";"2020-01-14 00:00:00";"2020-01-14 00:00:00";10;"";"";1
58452;"";"";"";"";"Nathan";"Thompson";"";"Nathan";"";"dispatch166@minetell.com";1;"";"2020-01-14 00:00:00";"2020-01-14 00:00:00";10;"";"";1
58459;"";"";"";"";"Jessica";"Kilpatrick";"";"Jessica";"";"dispatch167@minetell.com";1;"";"2020-01-14 00:00:00";"2020-01-14 00:00:00";10;"";"";1
58461;"";"";"";"";"Dennis";"Saharchuk";"";"Dennis";"";"dispatch168@minetell.com";1;"";"2020-01-14 00:00:00";"2020-01-14 00:00:00";10;"";"";1
58464;"";"";"";"";"Joel";"Nichols";"";"Joel";"";"dispatch169@minetell.com";1;"";"2020-01-14 00:00:00";"2020-01-14 00:00:00";10;"";"";1
58466;"";"";"";"";"Lawrence";"Solonas Sr";"";"Lawrence";"";"dispatch170@minetell.com";1;"";"2020-01-14 00:00:00";"2020-01-14 00:00:00";10;"";"";1
58472;"";"";"";"";"Carole";"Fortin";"";"Carole";"";"dispatch171@minetell.com";1;"";"2020-01-14 00:00:00";"2020-01-14 00:00:00";10;"";"";1
58474;"";"";"";"";"Andrew";"Beck";"";"Andrew";"";"dispatch172@minetell.com";1;"";"2020-01-14 00:00:00";"2020-01-14 00:00:00";10;"";"";1
58475;"";"";"";"";"Ernest";"Leon";"";"Ernest";"";"dispatch173@minetell.com";1;"";"2020-01-14 00:00:00";"2020-01-14 00:00:00";10;"";"";1
58476;"";"";"";"";"Terri";"Brown";"";"Terri";"";"dispatch174@minetell.com";1;"";"2020-01-14 00:00:00";"2020-01-14 00:00:00";10;"";"";1
58479;"";"";"";"";"Donald";"A'huille";"";"Donald";"";"dispatch175@minetell.com";1;"";"2020-01-14 00:00:00";"2020-01-14 00:00:00";10;"";"";1
58480;"";"";"";"";"Clifford";"Joseph Jr.";"";"Clifford";"";"dispatch176@minetell.com";1;"";"2020-01-14 00:00:00";"2020-01-14 00:00:00";10;"";"";1
58482;"";"";"";"";"Darrell";"Raymond";"";"Darrell";"";"dispatch177@minetell.com";1;"";"2020-01-14 00:00:00";"2020-01-14 00:00:00";10;"";"";1
58483;"";"";"";"";"Troy";"Loren";"";"Troy";"";"dispatch178@minetell.com";1;"";"2020-01-14 00:00:00";"2020-01-14 00:00:00";10;"";"";1
58484;"";"";"";"";"Royce";"Sam";"";"Royce";"";"dispatch179@minetell.com";1;"";"2020-01-14 00:00:00";"2020-01-14 00:00:00";10;"";"";1
58485;"";"";"";"";"Cale";"Parker";"";"Cale";"";"dispatch180@minetell.com";1;"";"2020-01-14 00:00:00";"2020-01-14 00:00:00";10;"";"";1
58497;"";"";"";"";"Spencer";"Glibbery";"";"Spencer";"";"dispatch181@minetell.com";1;"";"2020-01-14 00:00:00";"2020-01-14 00:00:00";10;"";"";1
58498;"";"";"";"";"Lauretta";"Prince";"";"Lauretta";"";"dispatch182@minetell.com";1;"";"2020-01-14 00:00:00";"2020-01-14 00:00:00";10;"";"";1
58502;"";"";"";"";"Philip";"Brousseau";"";"Philip";"";"dispatch183@minetell.com";1;"";"2020-01-14 00:00:00";"2020-01-14 00:00:00";10;"";"";1
58513;"";"";"";"";"Marlon";"Spooner";"";"Marlon";"";"dispatch184@minetell.com";1;"";"2020-01-14 00:00:00";"2020-01-14 00:00:00";10;"";"";1
58516;"";"";"";"";"Roderick";"Jones";"";"Roderick";"";"dispatch185@minetell.com";1;"";"2020-01-14 00:00:00";"2020-01-14 00:00:00";10;"";"";1
58517;"";"";"";"";"Michelle";"McJunkin";"";"Michelle";"";"dispatch186@minetell.com";1;"";"2020-01-14 00:00:00";"2020-01-14 00:00:00";10;"";"";1
58520;"";"";"";"";"David";"Nickless";"";"David";"";"dispatch187@minetell.com";1;"";"2020-01-14 00:00:00";"2020-01-14 00:00:00";10;"";"";1
58524;"";"";"";"";"Justinn";"Hodgins";"";"Justinn";"";"dispatch188@minetell.com";1;"";"2020-01-14 00:00:00";"2020-01-14 00:00:00";10;"";"";1
58526;"";"";"";"";"Michael";"Warner";"";"Michael";"";"dispatch189@minetell.com";1;"";"2020-01-14 00:00:00";"2020-01-14 00:00:00";10;"";"";1
58528;"";"";"";"";"Brian";"Hawthorne";"";"Brian";"";"dispatch190@minetell.com";1;"";"2020-01-14 00:00:00";"2020-01-14 00:00:00";10;"";"";1
58529;"";"";"";"";"Kyle";"Smeds";"";"Kyle";"";"dispatch191@minetell.com";1;"";"2020-01-14 00:00:00";"2020-01-14 00:00:00";10;"";"";1
58530;"";"";"";"";"Tyler";"Nielsen";"";"Tyler";"";"dispatch192@minetell.com";1;"";"2020-01-14 00:00:00";"2020-01-14 00:00:00";10;"";"";1
58542;"";"";"";"";"Lubica";"Kamenistiakova";"";"Lubica";"";"dispatch193@minetell.com";1;"";"2020-01-14 00:00:00";"2020-01-14 00:00:00";10;"";"";1
58544;"";"";"";"";"Tanner";"Vanstraaten";"";"Tanner";"";"dispatch194@minetell.com";1;"";"2020-01-14 00:00:00";"2020-01-14 00:00:00";10;"";"";1
58547;"";"";"";"";"Vincent";"Sam";"";"Vincent";"";"dispatch195@minetell.com";1;"";"2020-01-14 00:00:00";"2020-01-14 00:00:00";10;"";"";1
58548;"";"";"";"";"Kristyn";"Hughes";"";"Kristyn";"";"dispatch196@minetell.com";1;"";"2020-01-14 00:00:00";"2020-01-14 00:00:00";10;"";"";1
58549;"";"";"";"";"Martin";"Prince";"";"Martin";"";"dispatch197@minetell.com";1;"";"2020-01-14 00:00:00";"2020-01-14 00:00:00";10;"";"";1
58553;"";"";"";"";"Richard";"Peters";"";"Richard";"";"dispatch198@minetell.com";1;"";"2020-01-14 00:00:00";"2020-01-14 00:00:00";10;"";"";1
58555;"";"";"";"";"Joshua";"Davis";"";"Joshua";"";"dispatch199@minetell.com";1;"";"2020-01-14 00:00:00";"2020-01-14 00:00:00";10;"";"";1
58556;"";"";"";"";"Kyle";"Shadoff";"";"Kyle";"";"dispatch200@minetell.com";1;"";"2020-01-14 00:00:00";"2020-01-14 00:00:00";10;"";"";1
58559;"";"";"";"";"Dzhafar";"Gadzhiev";"";"Dzhafar";"";"dispatch201@minetell.com";1;"";"2020-01-14 00:00:00";"2020-01-14 00:00:00";10;"";"";1
58564;"";"";"";"";"Levi";"Lukeniuk";"";"Levi";"";"dispatch202@minetell.com";1;"";"2020-01-14 00:00:00";"2020-01-14 00:00:00";10;"";"";1
58565;"";"";"";"";"Andrew";"Gammond";"";"Andrew";"";"dispatch203@minetell.com";1;"";"2020-01-14 00:00:00";"2020-01-14 00:00:00";10;"";"";1
58567;"";"";"";"";"Cyrus";"Lyons";"";"Cyrus";"";"dispatch204@minetell.com";1;"";"2020-01-14 00:00:00";"2020-01-14 00:00:00";10;"";"";1
58569;"";"";"";"";"Dennis";"Grimm";"";"Dennis";"";"dispatch205@minetell.com";1;"";"2020-01-14 00:00:00";"2020-01-14 00:00:00";10;"";"";1
58572;"";"";"";"";"Shane";"Marais";"";"Shane";"";"dispatch206@minetell.com";1;"";"2020-01-14 00:00:00";"2020-01-14 00:00:00";10;"";"";1
58577;"";"";"";"";"Murray";"Martin";"";"Murray";"";"dispatch207@minetell.com";1;"";"2020-01-14 00:00:00";"2020-01-14 00:00:00";10;"";"";1
58579;"";"";"";"";"Aaron";"Ostrom";"";"Aaron";"";"dispatch208@minetell.com";1;"";"2020-01-14 00:00:00";"2020-01-14 00:00:00";10;"";"";1
58580;"";"";"";"";"Clifford";"Walker";"";"Clifford";"";"dispatch209@minetell.com";1;"";"2020-01-14 00:00:00";"2020-01-14 00:00:00";10;"";"";1
58581;"";"";"";"";"Dawna";"Foley";"";"Dawna";"";"dispatch210@minetell.com";1;"";"2020-01-14 00:00:00";"2020-01-14 00:00:00";10;"";"";1
58582;"";"";"";"";"David";"Fischer";"";"David";"";"dispatch211@minetell.com";1;"";"2020-01-14 00:00:00";"2020-01-14 00:00:00";10;"";"";1
58583;"";"";"";"";"Derek";"Smith";"";"Derek";"";"dispatch212@minetell.com";1;"";"2020-01-14 00:00:00";"2020-01-14 00:00:00";10;"";"";1
58584;"";"";"";"";"Randy";"Haight";"";"Randy";"";"dispatch213@minetell.com";1;"";"2020-01-14 00:00:00";"2020-01-14 00:00:00";10;"";"";1
58586;"";"";"";"";"Christopher";"Sawers";"";"Christopher";"";"dispatch214@minetell.com";1;"";"2020-01-14 00:00:00";"2020-01-14 00:00:00";10;"";"";1
58587;"";"";"";"";"Kaden";"Pearce";"";"Kaden";"";"dispatch215@minetell.com";1;"";"2020-01-14 00:00:00";"2020-01-14 00:00:00";10;"";"";1
58588;"";"";"";"";"Wesley";"Thomas";"";"Wesley";"";"dispatch216@minetell.com";1;"";"2020-01-14 00:00:00";"2020-01-14 00:00:00";10;"";"";1
58589;"";"";"";"";"Ronald";"Bullington";"";"Ronald";"";"dispatch217@minetell.com";1;"";"2020-01-14 00:00:00";"2020-01-14 00:00:00";10;"";"";1
58590;"";"";"";"";"Jayden";"L'Heureux";"";"Jayden";"";"dispatch218@minetell.com";1;"";"2020-01-14 00:00:00";"2020-01-14 00:00:00";10;"";"";1
58597;"";"";"";"";"Paul";"O'Toole";"";"Paul";"";"dispatch219@minetell.com";1;"";"2020-01-14 00:00:00";"2020-01-14 00:00:00";10;"";"";1
58600;"";"";"";"";"Calvin";"Dasilva";"";"Calvin";"";"dispatch220@minetell.com";1;"";"2020-01-14 00:00:00";"2020-01-14 00:00:00";10;"";"";1
58602;"";"";"";"";"Frederick";"Raymond";"";"Frederick";"";"dispatch221@minetell.com";1;"";"2020-01-14 00:00:00";"2020-01-14 00:00:00";10;"";"";1
58603;"";"";"";"";"Kaleb";"Widaiko";"";"Kaleb";"";"dispatch222@minetell.com";1;"";"2020-01-14 00:00:00";"2020-01-14 00:00:00";10;"";"";1
58608;"";"";"";"";"Richard";"Earle";"";"Richard";"";"dispatch223@minetell.com";1;"";"2020-01-14 00:00:00";"2020-01-14 00:00:00";10;"";"";1
58611;"";"";"";"";"Candice";"Woods";"";"Candice";"";"dispatch224@minetell.com";1;"";"2020-01-14 00:00:00";"2020-01-14 00:00:00";10;"";"";1
58615;"";"";"";"";"Elmer";"Borneman";"";"Elmer";"";"dispatch225@minetell.com";1;"";"2020-01-14 00:00:00";"2020-01-14 00:00:00";10;"";"";1
58617;"";"";"";"";"David";"Jackson";"";"David";"";"dispatch226@minetell.com";1;"";"2020-01-14 00:00:00";"2020-01-14 00:00:00";10;"";"";1
58618;"";"";"";"";"Steven";"Babin";"";"Steven";"";"dispatch227@minetell.com";1;"";"2020-01-14 00:00:00";"2020-01-14 00:00:00";10;"";"";1
58619;"";"";"";"";"Blake";"Rand";"";"Blake";"";"dispatch228@minetell.com";1;"";"2020-01-14 00:00:00";"2020-01-14 00:00:00";10;"";"";1
58621;"";"";"";"";"Amy";"Bird";"";"Amy";"";"dispatch229@minetell.com";1;"";"2020-01-14 00:00:00";"2020-01-14 00:00:00";10;"";"";1
58627;"";"";"";"";"Brendon";"Heisler";"";"Brendon";"";"dispatch230@minetell.com";1;"";"2020-01-14 00:00:00";"2020-01-14 00:00:00";10;"";"";1
58628;"";"";"";"";"Anton";"Schulz";"";"Anton";"";"dispatch231@minetell.com";1;"";"2020-01-14 00:00:00";"2020-01-14 00:00:00";10;"";"";1
58641;"";"";"";"";"Tristin";"Kapelari";"";"Tristin";"";"dispatch232@minetell.com";1;"";"2020-01-14 00:00:00";"2020-01-14 00:00:00";10;"";"";1
58642;"";"";"";"";"Steven";"Stasica";"";"Steven";"";"dispatch233@minetell.com";1;"";"2020-01-14 00:00:00";"2020-01-14 00:00:00";10;"";"";1
58644;"";"";"";"";"William";"Bailey";"";"William";"";"dispatch234@minetell.com";1;"";"2020-01-14 00:00:00";"2020-01-14 00:00:00";10;"";"";1
58646;"";"";"";"";"Tyler";"Hole";"";"Tyler";"";"dispatch235@minetell.com";1;"";"2020-01-14 00:00:00";"2020-01-14 00:00:00";10;"";"";1
58648;"";"";"";"";"Charles";"Hennessey";"";"Charles";"";"dispatch236@minetell.com";1;"";"2020-01-14 00:00:00";"2020-01-14 00:00:00";10;"";"";1
58650;"";"";"";"";"Matthew";"Kalin";"";"Matthew";"";"dispatch237@minetell.com";1;"";"2020-01-14 00:00:00";"2020-01-14 00:00:00";10;"";"";1
58651;"";"";"";"";"Donald";"Forster";"";"Donald";"";"dispatch238@minetell.com";1;"";"2020-01-14 00:00:00";"2020-01-14 00:00:00";10;"";"";1
58653;"";"";"";"";"Timothy";"Crampain";"";"Timothy";"";"dispatch239@minetell.com";1;"";"2020-01-14 00:00:00";"2020-01-14 00:00:00";10;"";"";1
58655;"";"";"";"";"Garry";"Vinje";"";"Garry";"";"dispatch240@minetell.com";1;"";"2020-01-14 00:00:00";"2020-01-14 00:00:00";10;"";"";1
58656;"";"";"";"";"Curtis";"Dekens";"";"Curtis";"";"dispatch241@minetell.com";1;"";"2020-01-14 00:00:00";"2020-01-14 00:00:00";10;"";"";1
58658;"";"";"";"";"Serge";"Brillant";"";"Serge";"";"dispatch242@minetell.com";1;"";"2020-01-14 00:00:00";"2020-01-14 00:00:00";10;"";"";1
58660;"";"";"";"";"Katelyn";"Walters";"";"Katelyn";"";"dispatch243@minetell.com";1;"";"2020-01-14 00:00:00";"2020-01-14 00:00:00";10;"";"";1
58661;"";"";"";"";"Isabel";"McFetridge";"";"Isabel";"";"dispatch244@minetell.com";1;"";"2020-01-14 00:00:00";"2020-01-14 00:00:00";10;"";"";1
58663;"";"";"";"";"Brittany";"Johnson";"";"Brittany";"";"dispatch245@minetell.com";1;"";"2020-01-14 00:00:00";"2020-01-14 00:00:00";10;"";"";1
58665;"";"";"";"";"Rodrick";"Solonas";"";"Rodrick";"";"dispatch246@minetell.com";1;"";"2020-01-14 00:00:00";"2020-01-14 00:00:00";10;"";"";1
58666;"";"";"";"";"Tyrone";"Leon";"";"Tyrone";"";"dispatch247@minetell.com";1;"";"2020-01-14 00:00:00";"2020-01-14 00:00:00";10;"";"";1
58674;"";"";"";"";"Douglas";"Sam";"";"Douglas";"";"dispatch248@minetell.com";1;"";"2020-01-14 00:00:00";"2020-01-14 00:00:00";10;"";"";1
58676;"";"";"";"";"Joseph";"Latino";"";"Joseph";"";"dispatch249@minetell.com";1;"";"2020-01-14 00:00:00";"2020-01-14 00:00:00";10;"";"";1
58679;"";"";"";"";"Brian";"Rivard";"";"Brian";"";"dispatch250@minetell.com";1;"";"2020-01-14 00:00:00";"2020-01-14 00:00:00";10;"";"";1
58683;"";"";"";"";"Deanna";"Sebastian";"";"Deanna";"";"dispatch251@minetell.com";1;"";"2020-01-14 00:00:00";"2020-01-14 00:00:00";10;"";"";1
58687;"";"";"";"";"Karl";"Leski";"";"Karl";"";"dispatch252@minetell.com";1;"";"2020-01-14 00:00:00";"2020-01-14 00:00:00";10;"";"";1
58688;"";"";"";"";"Karl";"Janzen";"";"Karl";"";"dispatch253@minetell.com";1;"";"2020-01-14 00:00:00";"2020-01-14 00:00:00";10;"";"";1
58691;"";"";"";"";"Dallas";"Van Koughnett";"";"Dallas";"";"dispatch254@minetell.com";1;"";"2020-01-14 00:00:00";"2020-01-14 00:00:00";10;"";"";1
58693;"";"";"";"";"Trevis";"Arndt";"";"Trevis";"";"dispatch255@minetell.com";1;"";"2020-01-14 00:00:00";"2020-01-14 00:00:00";10;"";"";1
58695;"";"";"";"";"Joseph";"Prince";"";"Joseph";"";"dispatch256@minetell.com";1;"";"2020-01-14 00:00:00";"2020-01-14 00:00:00";10;"";"";1
58696;"";"";"";"";"Keith";"Morris";"";"Keith";"";"dispatch257@minetell.com";1;"";"2020-01-14 00:00:00";"2020-01-14 00:00:00";10;"";"";1
58704;"";"";"";"";"Kristopher";"Lokken";"";"Kristopher";"";"dispatch258@minetell.com";1;"";"2020-01-14 00:00:00";"2020-01-14 00:00:00";10;"";"";1
58706;"";"";"";"";"Chandrashakher";"Nagulapally";"";"Chandrashakher";"";"dispatch259@minetell.com";1;"";"2020-01-14 00:00:00";"2020-01-14 00:00:00";10;"";"";1
58708;"";"";"";"";"Aaron";"Paterson";"";"Aaron";"";"dispatch260@minetell.com";1;"";"2020-01-14 00:00:00";"2020-01-14 00:00:00";10;"";"";1
58711;"";"";"";"";"Ethan";"Schroeder";"";"Ethan";"";"dispatch261@minetell.com";1;"";"2020-01-14 00:00:00";"2020-01-14 00:00:00";10;"";"";1
58713;"";"";"";"";"Darrell";"Clark";"";"Darrell";"";"dispatch262@minetell.com";1;"";"2020-01-14 00:00:00";"2020-01-14 00:00:00";10;"";"";1
58714;"";"";"";"";"Clifford";"Marcil";"";"Clifford";"";"dispatch263@minetell.com";1;"";"2020-01-14 00:00:00";"2020-01-14 00:00:00";10;"";"";1
58715;"";"";"";"";"Jeffrey";"Lowry";"";"Jeffrey";"";"dispatch264@minetell.com";1;"";"2020-01-14 00:00:00";"2020-01-14 00:00:00";10;"";"";1
58717;"";"";"";"";"Richard";"Doyer";"";"Richard";"";"dispatch265@minetell.com";1;"";"2020-01-14 00:00:00";"2020-01-14 00:00:00";10;"";"";1
58718;"";"";"";"";"Louie";"Johnston";"";"Louie";"";"dispatch266@minetell.com";1;"";"2020-01-14 00:00:00";"2020-01-14 00:00:00";10;"";"";1
58719;"";"";"";"";"Cory";"McCartney";"";"Cory";"";"dispatch267@minetell.com";1;"";"2020-01-14 00:00:00";"2020-01-14 00:00:00";10;"";"";1
58720;"";"";"";"";"Ferdous";"Ahmed";"";"Ferdous";"";"dispatch268@minetell.com";1;"";"2020-01-14 00:00:00";"2020-01-14 00:00:00";10;"";"";1
58721;"";"";"";"";"James";"Isaac-Morrell";"";"James";"";"dispatch269@minetell.com";1;"";"2020-01-14 00:00:00";"2020-01-14 00:00:00";10;"";"";1
58722;"";"";"";"";"Todd";"Seminuk";"";"Todd";"";"dispatch270@minetell.com";1;"";"2020-01-14 00:00:00";"2020-01-14 00:00:00";10;"";"";1
58723;"";"";"";"";"Robert";"Gaudreau";"";"Robert";"";"dispatch271@minetell.com";1;"";"2020-01-14 00:00:00";"2020-01-14 00:00:00";10;"";"";1
58725;"";"";"";"";"Brett";"Fisher";"";"Brett";"";"dispatch272@minetell.com";1;"";"2020-01-14 00:00:00";"2020-01-14 00:00:00";10;"";"";1
58726;"";"";"";"";"Lucas";"Horn";"";"Lucas";"";"dispatch273@minetell.com";1;"";"2020-01-14 00:00:00";"2020-01-14 00:00:00";10;"";"";1
58727;"";"";"";"";"David";"Webb";"";"David";"";"dispatch274@minetell.com";1;"";"2020-01-14 00:00:00";"2020-01-14 00:00:00";10;"";"";1
58728;"";"";"";"";"Scott";"Ramsay";"";"Scott";"";"dispatch275@minetell.com";1;"";"2020-01-14 00:00:00";"2020-01-14 00:00:00";10;"";"";1
58730;"";"";"";"";"Elpidio";"Tito";"";"Elpidio";"";"dispatch276@minetell.com";1;"";"2020-01-14 00:00:00";"2020-01-14 00:00:00";10;"";"";1
58734;"";"";"";"";"Joshua";"Currie";"";"Joshua";"";"dispatch277@minetell.com";1;"";"2020-01-14 00:00:00";"2020-01-14 00:00:00";10;"";"";1
58735;"";"";"";"";"Darrin";"Chandler";"";"Darrin";"";"dispatch278@minetell.com";1;"";"2020-01-14 00:00:00";"2020-01-14 00:00:00";10;"";"";1
58737;"";"";"";"";"Michael";"Toews";"";"Michael";"";"dispatch279@minetell.com";1;"";"2020-01-14 00:00:00";"2020-01-14 00:00:00";10;"";"";1
58738;"";"";"";"";"Adam";"Sjodin";"";"Adam";"";"dispatch280@minetell.com";1;"";"2020-01-14 00:00:00";"2020-01-14 00:00:00";10;"";"";1
58739;"";"";"";"";"Donald";"Nickolichuk";"";"Donald";"";"dispatch281@minetell.com";1;"";"2020-01-14 00:00:00";"2020-01-14 00:00:00";10;"";"";1
58745;"";"";"";"";"Thomas";"Briggeman";"";"Thomas";"";"dispatch282@minetell.com";1;"";"2020-01-14 00:00:00";"2020-01-14 00:00:00";10;"";"";1
58746;"";"";"";"";"Michael";"Schmaltz";"";"Michael";"";"dispatch283@minetell.com";1;"";"2020-01-14 00:00:00";"2020-01-14 00:00:00";10;"";"";1
58749;"";"";"";"";"Tracy";"Thiessen";"";"Tracy";"";"dispatch284@minetell.com";1;"";"2020-01-14 00:00:00";"2020-01-14 00:00:00";10;"";"";1
58750;"";"";"";"";"Erin";"Wyllie";"";"Erin";"";"dispatch285@minetell.com";1;"";"2020-01-14 00:00:00";"2020-01-14 00:00:00";10;"";"";1
58751;"";"";"";"";"Dennis";"Parke";"";"Dennis";"";"dispatch286@minetell.com";1;"";"2020-01-14 00:00:00";"2020-01-14 00:00:00";10;"";"";1
58752;"";"";"";"";"Michael";"Stanley";"";"Michael";"";"dispatch287@minetell.com";1;"";"2020-01-14 00:00:00";"2020-01-14 00:00:00";10;"";"";1
58755;"";"";"";"";"Susheetha";"Reddy";"";"Susheetha";"";"dispatch288@minetell.com";1;"";"2020-01-14 00:00:00";"2020-01-14 00:00:00";10;"";"";1
58759;"";"";"";"";"Francis";"Mazur";"";"Francis";"";"dispatch289@minetell.com";1;"";"2020-01-14 00:00:00";"2020-01-14 00:00:00";10;"";"";1
58761;"";"";"";"";"Marlon";"Sam";"";"Marlon";"";"dispatch290@minetell.com";1;"";"2020-01-14 00:00:00";"2020-01-14 00:00:00";10;"";"";1
58763;"";"";"";"";"Jordan";"Blois";"";"Jordan";"";"dispatch291@minetell.com";1;"";"2020-01-14 00:00:00";"2020-01-14 00:00:00";10;"";"";1
58764;"";"";"";"";"Nickolas";"Schemenauer";"";"Nickolas";"";"dispatch292@minetell.com";1;"";"2020-01-14 00:00:00";"2020-01-14 00:00:00";10;"";"";1
58765;"";"";"";"";"Desmond";"Erickson";"";"Desmond";"";"dispatch293@minetell.com";1;"";"2020-01-14 00:00:00";"2020-01-14 00:00:00";10;"";"";1
58766;"";"";"";"";"Kall";"Cloarec";"";"Kall";"";"dispatch294@minetell.com";1;"";"2020-01-14 00:00:00";"2020-01-14 00:00:00";10;"";"";1
58768;"";"";"";"";"Hubert";"Schimann";"";"Hubert";"";"dispatch295@minetell.com";1;"";"2020-01-14 00:00:00";"2020-01-14 00:00:00";10;"";"";1
58772;"";"";"";"";"Grant";"Turner";"";"Grant";"";"dispatch296@minetell.com";1;"";"2020-01-14 00:00:00";"2020-01-14 00:00:00";10;"";"";1
58773;"";"";"";"";"Lucas";"Denham";"";"Lucas";"";"dispatch297@minetell.com";1;"";"2020-01-14 00:00:00";"2020-01-14 00:00:00";10;"";"";1
58776;"";"";"";"";"Mahin";"Salam";"";"Mahin";"";"dispatch298@minetell.com";1;"";"2020-01-14 00:00:00";"2020-01-14 00:00:00";10;"";"";1
58777;"";"";"";"";"Serena";"Stanisavljevic";"";"Serena";"";"dispatch299@minetell.com";1;"";"2020-01-14 00:00:00";"2020-01-14 00:00:00";10;"";"";1
58779;"";"";"";"";"Jonathan";"Shearer";"";"Jonathan";"";"dispatch300@minetell.com";1;"";"2020-01-14 00:00:00";"2020-01-14 00:00:00";10;"";"";1
58780;"";"";"";"";"Cole";"Prince";"";"Cole";"";"dispatch301@minetell.com";1;"";"2020-01-14 00:00:00";"2020-01-14 00:00:00";10;"";"";1
58781;"";"";"";"";"Geoffrey";"Thornett";"";"Geoffrey";"";"dispatch302@minetell.com";1;"";"2020-01-14 00:00:00";"2020-01-14 00:00:00";10;"";"";1
58791;"";"";"";"";"Montana";"Turgeon";"";"Montana";"";"dispatch303@minetell.com";1;"";"2020-01-14 00:00:00";"2020-01-14 00:00:00";10;"";"";1
58793;"";"";"";"";"Tyler";"Stevenson";"";"Tyler";"";"dispatch304@minetell.com";1;"";"2020-01-14 00:00:00";"2020-01-14 00:00:00";10;"";"";1
58794;"";"";"";"";"Mark";"Rouw";"";"Mark";"";"dispatch305@minetell.com";1;"";"2020-01-14 00:00:00";"2020-01-14 00:00:00";10;"";"";1
58795;"";"";"";"";"Guan Cen";"Liu";"";"Guan Cen";"";"dispatch306@minetell.com";1;"";"2020-01-14 00:00:00";"2020-01-14 00:00:00";10;"";"";1
58797;"";"";"";"";"Garry";"Hagarty";"";"Garry";"";"dispatch307@minetell.com";1;"";"2020-01-14 00:00:00";"2020-01-14 00:00:00";10;"";"";1
58798;"";"";"";"";"Bill";"Heath";"";"Bill";"";"dispatch308@minetell.com";1;"";"2020-01-14 00:00:00";"2020-01-14 00:00:00";10;"";"";1
58803;"";"";"";"";"Steven";"O'Keefe";"";"Steven";"";"dispatch309@minetell.com";1;"";"2020-01-14 00:00:00";"2020-01-14 00:00:00";10;"";"";1
58910;"";"";"";"";"Valida";"Rzaeva";"";"Valida";"";"dispatch310@minetell.com";1;"";"2020-01-14 00:00:00";"2020-01-14 00:00:00";10;"";"";1
58912;"";"";"";"";"Kirstin";"McNeil";"";"Kirstin";"";"dispatch311@minetell.com";1;"";"2020-01-14 00:00:00";"2020-01-14 00:00:00";10;"";"";1
58915;"";"";"";"";"Andrea";"Sargent";"";"Andrea";"";"dispatch312@minetell.com";1;"";"2020-01-14 00:00:00";"2020-01-14 00:00:00";10;"";"";1
58919;"";"";"";"";"Lawrence";"Brennan";"";"Lawrence";"";"dispatch313@minetell.com";1;"";"2020-01-14 00:00:00";"2020-01-14 00:00:00";10;"";"";1
58920;"";"";"";"";"Jamie";"Gawletz";"";"Jamie";"";"dispatch314@minetell.com";1;"";"2020-01-14 00:00:00";"2020-01-14 00:00:00";10;"";"";1
58926;"";"";"";"";"Ryan";"Kirkbride";"";"Ryan";"";"dispatch315@minetell.com";1;"";"2020-01-14 00:00:00";"2020-01-14 00:00:00";10;"";"";1
58928;"";"";"";"";"Daniel";"Pettie";"";"Daniel";"";"dispatch316@minetell.com";1;"";"2020-01-14 00:00:00";"2020-01-14 00:00:00";10;"";"";1
91251;"";"";"";"";"Gregory";"Herbert";"";"Gregory";"";"dispatch317@minetell.com";1;"";"2020-01-14 00:00:00";"2020-01-14 00:00:00";10;"";"";1
92665;"";"";"";"";"Christine";"Griffin";"";"Christine";"";"dispatch318@minetell.com";1;"";"2020-01-14 00:00:00";"2020-01-14 00:00:00";10;"";"";1
92770;"";"";"";"";"Joseph";"Jenkinson";"";"Joseph";"";"dispatch319@minetell.com";1;"";"2020-01-14 00:00:00";"2020-01-14 00:00:00";10;"";"";1
92827;"";"";"";"";"James";"Woolsey";"";"James";"";"dispatch320@minetell.com";1;"";"2020-01-14 00:00:00";"2020-01-14 00:00:00";10;"";"";1
92959;"";"";"";"";"Stephen";"Broadhead";"";"Stephen";"";"dispatch321@minetell.com";1;"";"2020-01-14 00:00:00";"2020-01-14 00:00:00";10;"";"";1
93289;"";"";"";"";"Christopher";"Hiemstra";"";"Christopher";"";"dispatch322@minetell.com";1;"";"2020-01-14 00:00:00";"2020-01-14 00:00:00";10;"";"";1
94056;"";"";"";"";"Lorne";"Wilkinson";"";"Lorne";"";"dispatch323@minetell.com";1;"";"2020-01-14 00:00:00";"2020-01-14 00:00:00";10;"";"";1
